Galetron/PC/simulation/qsim/PC.msim.vcd
$comment
	File created using the following command:
		vcd file PC.msim.vcd -direction
$end
$date
	Thu Jun  9 16:42:00 2016
$end
$version
	ModelSim Version 10.4b
$end
$timescale
	1ps
$end

$scope module PC_vlg_vec_tst $end
$var reg 32 ! address [31:0] $end
$var reg 1 " branch $end
$var reg 1 # clock $end
$var reg 1 $ jump $end
$var reg 1 % negative $end
$var reg 1 & zero $end
$var wire 1 ' programCounter [31] $end
$var wire 1 ( programCounter [30] $end
$var wire 1 ) programCounter [29] $end
$var wire 1 * programCounter [28] $end
$var wire 1 + programCounter [27] $end
$var wire 1 , programCounter [26] $end
$var wire 1 - programCounter [25] $end
$var wire 1 . programCounter [24] $end
$var wire 1 / programCounter [23] $end
$var wire 1 0 programCounter [22] $end
$var wire 1 1 programCounter [21] $end
$var wire 1 2 programCounter [20] $end
$var wire 1 3 programCounter [19] $end
$var wire 1 4 programCounter [18] $end
$var wire 1 5 programCounter [17] $end
$var wire 1 6 programCounter [16] $end
$var wire 1 7 programCounter [15] $end
$var wire 1 8 programCounter [14] $end
$var wire 1 9 programCounter [13] $end
$var wire 1 : programCounter [12] $end
$var wire 1 ; programCounter [11] $end
$var wire 1 < programCounter [10] $end
$var wire 1 = programCounter [9] $end
$var wire 1 > programCounter [8] $end
$var wire 1 ? programCounter [7] $end
$var wire 1 @ programCounter [6] $end
$var wire 1 A programCounter [5] $end
$var wire 1 B programCounter [4] $end
$var wire 1 C programCounter [3] $end
$var wire 1 D programCounter [2] $end
$var wire 1 E programCounter [1] $end
$var wire 1 F programCounter [0] $end

$scope module i1 $end
$var wire 1 G gnd $end
$var wire 1 H vcc $end
$var wire 1 I unknown $end
$var tri1 1 J devclrn $end
$var tri1 1 K devpor $end
$var tri1 1 L devoe $end
$var wire 1 M programCounter[0]~output_o $end
$var wire 1 N programCounter[1]~output_o $end
$var wire 1 O programCounter[2]~output_o $end
$var wire 1 P programCounter[3]~output_o $end
$var wire 1 Q programCounter[4]~output_o $end
$var wire 1 R programCounter[5]~output_o $end
$var wire 1 S programCounter[6]~output_o $end
$var wire 1 T programCounter[7]~output_o $end
$var wire 1 U programCounter[8]~output_o $end
$var wire 1 V programCounter[9]~output_o $end
$var wire 1 W programCounter[10]~output_o $end
$var wire 1 X programCounter[11]~output_o $end
$var wire 1 Y programCounter[12]~output_o $end
$var wire 1 Z programCounter[13]~output_o $end
$var wire 1 [ programCounter[14]~output_o $end
$var wire 1 \ programCounter[15]~output_o $end
$var wire 1 ] programCounter[16]~output_o $end
$var wire 1 ^ programCounter[17]~output_o $end
$var wire 1 _ programCounter[18]~output_o $end
$var wire 1 ` programCounter[19]~output_o $end
$var wire 1 a programCounter[20]~output_o $end
$var wire 1 b programCounter[21]~output_o $end
$var wire 1 c programCounter[22]~output_o $end
$var wire 1 d programCounter[23]~output_o $end
$var wire 1 e programCounter[24]~output_o $end
$var wire 1 f programCounter[25]~output_o $end
$var wire 1 g programCounter[26]~output_o $end
$var wire 1 h programCounter[27]~output_o $end
$var wire 1 i programCounter[28]~output_o $end
$var wire 1 j programCounter[29]~output_o $end
$var wire 1 k programCounter[30]~output_o $end
$var wire 1 l programCounter[31]~output_o $end
$var wire 1 m clock~input_o $end
$var wire 1 n clock~inputclkctrl_outclk $end
$var wire 1 o address[0]~input_o $end
$var wire 1 p branchAdd[0]~0_combout $end
$var wire 1 q jump~input_o $end
$var wire 1 r newPc[0]~0_combout $end
$var wire 1 s branch~input_o $end
$var wire 1 t negative~input_o $end
$var wire 1 u zero~input_o $end
$var wire 1 v programCounter[1]~0_combout $end
$var wire 1 w programCounter[0]~reg0_q $end
$var wire 1 x address[1]~input_o $end
$var wire 1 y branchAdd[0]~1 $end
$var wire 1 z branchAdd[1]~2_combout $end
$var wire 1 { newPc[1]~1_combout $end
$var wire 1 | programCounter[1]~reg0_q $end
$var wire 1 } select~0_combout $end
$var wire 1 ~ pcInc[2]~0_combout $end
$var wire 1 !! address[2]~input_o $end
$var wire 1 "! branchAdd[1]~3 $end
$var wire 1 #! branchAdd[2]~4_combout $end
$var wire 1 $! newPc[2]~2_combout $end
$var wire 1 %! programCounter[2]~reg0_q $end
$var wire 1 &! pcInc[2]~1 $end
$var wire 1 '! pcInc[3]~2_combout $end
$var wire 1 (! address[3]~input_o $end
$var wire 1 )! branchAdd[2]~5 $end
$var wire 1 *! branchAdd[3]~6_combout $end
$var wire 1 +! newPc[3]~3_combout $end
$var wire 1 ,! programCounter[3]~reg0_q $end
$var wire 1 -! pcInc[3]~3 $end
$var wire 1 .! pcInc[4]~4_combout $end
$var wire 1 /! address[4]~input_o $end
$var wire 1 0! branchAdd[3]~7 $end
$var wire 1 1! branchAdd[4]~8_combout $end
$var wire 1 2! newPc[4]~4_combout $end
$var wire 1 3! programCounter[4]~reg0_q $end
$var wire 1 4! pcInc[4]~5 $end
$var wire 1 5! pcInc[5]~6_combout $end
$var wire 1 6! address[5]~input_o $end
$var wire 1 7! branchAdd[4]~9 $end
$var wire 1 8! branchAdd[5]~10_combout $end
$var wire 1 9! newPc[5]~5_combout $end
$var wire 1 :! programCounter[5]~reg0_q $end
$var wire 1 ;! pcInc[5]~7 $end
$var wire 1 <! pcInc[6]~8_combout $end
$var wire 1 =! address[6]~input_o $end
$var wire 1 >! branchAdd[5]~11 $end
$var wire 1 ?! branchAdd[6]~12_combout $end
$var wire 1 @! newPc[6]~6_combout $end
$var wire 1 A! programCounter[6]~reg0_q $end
$var wire 1 B! pcInc[6]~9 $end
$var wire 1 C! pcInc[7]~10_combout $end
$var wire 1 D! address[7]~input_o $end
$var wire 1 E! branchAdd[6]~13 $end
$var wire 1 F! branchAdd[7]~14_combout $end
$var wire 1 G! newPc[7]~7_combout $end
$var wire 1 H! programCounter[7]~reg0_q $end
$var wire 1 I! pcInc[7]~11 $end
$var wire 1 J! pcInc[8]~12_combout $end
$var wire 1 K! address[8]~input_o $end
$var wire 1 L! branchAdd[7]~15 $end
$var wire 1 M! branchAdd[8]~16_combout $end
$var wire 1 N! newPc[8]~8_combout $end
$var wire 1 O! programCounter[8]~reg0_q $end
$var wire 1 P! pcInc[8]~13 $end
$var wire 1 Q! pcInc[9]~14_combout $end
$var wire 1 R! address[9]~input_o $end
$var wire 1 S! branchAdd[8]~17 $end
$var wire 1 T! branchAdd[9]~18_combout $end
$var wire 1 U! newPc[9]~9_combout $end
$var wire 1 V! programCounter[9]~reg0_q $end
$var wire 1 W! address[10]~input_o $end
$var wire 1 X! pcInc[9]~15 $end
$var wire 1 Y! pcInc[10]~16_combout $end
$var wire 1 Z! branchAdd[9]~19 $end
$var wire 1 [! branchAdd[10]~20_combout $end
$var wire 1 \! newPc[10]~10_combout $end
$var wire 1 ]! programCounter[10]~reg0_q $end
$var wire 1 ^! pcInc[10]~17 $end
$var wire 1 _! pcInc[11]~18_combout $end
$var wire 1 `! address[11]~input_o $end
$var wire 1 a! branchAdd[10]~21 $end
$var wire 1 b! branchAdd[11]~22_combout $end
$var wire 1 c! newPc[11]~11_combout $end
$var wire 1 d! programCounter[11]~reg0_q $end
$var wire 1 e! pcInc[11]~19 $end
$var wire 1 f! pcInc[12]~20_combout $end
$var wire 1 g! address[12]~input_o $end
$var wire 1 h! branchAdd[11]~23 $end
$var wire 1 i! branchAdd[12]~24_combout $end
$var wire 1 j! newPc[12]~12_combout $end
$var wire 1 k! programCounter[12]~reg0_q $end
$var wire 1 l! address[13]~input_o $end
$var wire 1 m! pcInc[12]~21 $end
$var wire 1 n! pcInc[13]~22_combout $end
$var wire 1 o! branchAdd[12]~25 $end
$var wire 1 p! branchAdd[13]~26_combout $end
$var wire 1 q! newPc[13]~13_combout $end
$var wire 1 r! programCounter[13]~reg0_q $end
$var wire 1 s! pcInc[13]~23 $end
$var wire 1 t! pcInc[14]~24_combout $end
$var wire 1 u! address[14]~input_o $end
$var wire 1 v! branchAdd[13]~27 $end
$var wire 1 w! branchAdd[14]~28_combout $end
$var wire 1 x! newPc[14]~14_combout $end
$var wire 1 y! programCounter[14]~reg0_q $end
$var wire 1 z! pcInc[14]~25 $end
$var wire 1 {! pcInc[15]~26_combout $end
$var wire 1 |! address[15]~input_o $end
$var wire 1 }! branchAdd[14]~29 $end
$var wire 1 ~! branchAdd[15]~30_combout $end
$var wire 1 !" newPc[15]~15_combout $end
$var wire 1 "" programCounter[15]~reg0_q $end
$var wire 1 #" pcInc[15]~27 $end
$var wire 1 $" pcInc[16]~28_combout $end
$var wire 1 %" address[16]~input_o $end
$var wire 1 &" branchAdd[15]~31 $end
$var wire 1 '" branchAdd[16]~32_combout $end
$var wire 1 (" newPc[16]~16_combout $end
$var wire 1 )" programCounter[16]~reg0_q $end
$var wire 1 *" pcInc[16]~29 $end
$var wire 1 +" pcInc[17]~30_combout $end
$var wire 1 ," address[17]~input_o $end
$var wire 1 -" branchAdd[16]~33 $end
$var wire 1 ." branchAdd[17]~34_combout $end
$var wire 1 /" newPc[17]~17_combout $end
$var wire 1 0" programCounter[17]~reg0_q $end
$var wire 1 1" pcInc[17]~31 $end
$var wire 1 2" pcInc[18]~32_combout $end
$var wire 1 3" address[18]~input_o $end
$var wire 1 4" branchAdd[17]~35 $end
$var wire 1 5" branchAdd[18]~36_combout $end
$var wire 1 6" newPc[18]~18_combout $end
$var wire 1 7" programCounter[18]~reg0_q $end
$var wire 1 8" address[19]~input_o $end
$var wire 1 9" pcInc[18]~33 $end
$var wire 1 :" pcInc[19]~34_combout $end
$var wire 1 ;" branchAdd[18]~37 $end
$var wire 1 <" branchAdd[19]~38_combout $end
$var wire 1 =" newPc[19]~19_combout $end
$var wire 1 >" programCounter[19]~reg0_q $end
$var wire 1 ?" pcInc[19]~35 $end
$var wire 1 @" pcInc[20]~36_combout $end
$var wire 1 A" address[20]~input_o $end
$var wire 1 B" branchAdd[19]~39 $end
$var wire 1 C" branchAdd[20]~40_combout $end
$var wire 1 D" newPc[20]~20_combout $end
$var wire 1 E" programCounter[20]~reg0_q $end
$var wire 1 F" pcInc[20]~37 $end
$var wire 1 G" pcInc[21]~38_combout $end
$var wire 1 H" address[21]~input_o $end
$var wire 1 I" branchAdd[20]~41 $end
$var wire 1 J" branchAdd[21]~42_combout $end
$var wire 1 K" newPc[21]~21_combout $end
$var wire 1 L" programCounter[21]~reg0_q $end
$var wire 1 M" pcInc[21]~39 $end
$var wire 1 N" pcInc[22]~40_combout $end
$var wire 1 O" address[22]~input_o $end
$var wire 1 P" branchAdd[21]~43 $end
$var wire 1 Q" branchAdd[22]~44_combout $end
$var wire 1 R" newPc[22]~22_combout $end
$var wire 1 S" programCounter[22]~reg0_q $end
$var wire 1 T" pcInc[22]~41 $end
$var wire 1 U" pcInc[23]~42_combout $end
$var wire 1 V" address[23]~input_o $end
$var wire 1 W" branchAdd[22]~45 $end
$var wire 1 X" branchAdd[23]~46_combout $end
$var wire 1 Y" newPc[23]~23_combout $end
$var wire 1 Z" programCounter[23]~reg0_q $end
$var wire 1 [" pcInc[23]~43 $end
$var wire 1 \" pcInc[24]~44_combout $end
$var wire 1 ]" address[24]~input_o $end
$var wire 1 ^" branchAdd[23]~47 $end
$var wire 1 _" branchAdd[24]~48_combout $end
$var wire 1 `" newPc[24]~24_combout $end
$var wire 1 a" programCounter[24]~reg0_q $end
$var wire 1 b" pcInc[24]~45 $end
$var wire 1 c" pcInc[25]~46_combout $end
$var wire 1 d" address[25]~input_o $end
$var wire 1 e" branchAdd[24]~49 $end
$var wire 1 f" branchAdd[25]~50_combout $end
$var wire 1 g" newPc[25]~25_combout $end
$var wire 1 h" programCounter[25]~reg0_q $end
$var wire 1 i" pcInc[25]~47 $end
$var wire 1 j" pcInc[26]~48_combout $end
$var wire 1 k" address[26]~input_o $end
$var wire 1 l" branchAdd[25]~51 $end
$var wire 1 m" branchAdd[26]~52_combout $end
$var wire 1 n" newPc[26]~26_combout $end
$var wire 1 o" programCounter[26]~reg0_q $end
$var wire 1 p" pcInc[26]~49 $end
$var wire 1 q" pcInc[27]~50_combout $end
$var wire 1 r" address[27]~input_o $end
$var wire 1 s" branchAdd[26]~53 $end
$var wire 1 t" branchAdd[27]~54_combout $end
$var wire 1 u" newPc[27]~27_combout $end
$var wire 1 v" programCounter[27]~reg0_q $end
$var wire 1 w" pcInc[27]~51 $end
$var wire 1 x" pcInc[28]~52_combout $end
$var wire 1 y" address[28]~input_o $end
$var wire 1 z" branchAdd[27]~55 $end
$var wire 1 {" branchAdd[28]~56_combout $end
$var wire 1 |" newPc[28]~28_combout $end
$var wire 1 }" programCounter[28]~reg0_q $end
$var wire 1 ~" pcInc[28]~53 $end
$var wire 1 !# pcInc[29]~54_combout $end
$var wire 1 "# address[29]~input_o $end
$var wire 1 ## branchAdd[28]~57 $end
$var wire 1 $# branchAdd[29]~58_combout $end
$var wire 1 %# newPc[29]~29_combout $end
$var wire 1 &# programCounter[29]~reg0_q $end
$var wire 1 '# pcInc[29]~55 $end
$var wire 1 (# pcInc[30]~56_combout $end
$var wire 1 )# address[30]~input_o $end
$var wire 1 *# branchAdd[29]~59 $end
$var wire 1 +# branchAdd[30]~60_combout $end
$var wire 1 ,# newPc[30]~30_combout $end
$var wire 1 -# programCounter[30]~reg0_q $end
$var wire 1 .# pcInc[30]~57 $end
$var wire 1 /# pcInc[31]~58_combout $end
$var wire 1 0# address[31]~input_o $end
$var wire 1 1# branchAdd[30]~61 $end
$var wire 1 2# branchAdd[31]~62_combout $end
$var wire 1 3# newPc[31]~31_combout $end
$var wire 1 4# programCounter[31]~reg0_q $end
$upscope $end
$upscope $end
$enddefinitions $end
#0
$dumpvars
b1010 !
0"
0#
0$
0%
0&
0F
0E
0D
0C
0B
0A
0@
0?
0>
0=
0<
0;
0:
09
08
07
06
05
04
03
02
01
00
0/
0.
0-
0,
0+
0*
0)
0(
0'
0G
1H
xI
1J
1K
1L
0M
0N
0O
0P
0Q
0R
0S
0T
0U
0V
0W
0X
0Y
0Z
0[
0\
0]
0^
0_
0`
0a
0b
0c
0d
0e
0f
0g
0h
0i
0j
0k
0l
0m
0n
0o
0p
0q
0r
0s
0t
0u
0v
0w
1x
0y
1z
1{
0|
1}
1~
0!!
1"!
1#!
1$!
0%!
0&!
0'!
1(!
0)!
1*!
0+!
0,!
1-!
0.!
0/!
10!
01!
02!
03!
04!
05!
06!
07!
08!
09!
0:!
1;!
0<!
0=!
1>!
0?!
0@!
0A!
0B!
0C!
0D!
0E!
0F!
0G!
0H!
1I!
0J!
0K!
1L!
0M!
0N!
0O!
0P!
0Q!
0R!
0S!
0T!
0U!
0V!
0W!
1X!
0Y!
1Z!
0[!
0\!
0]!
0^!
0_!
0`!
0a!
0b!
0c!
0d!
1e!
0f!
0g!
1h!
0i!
0j!
0k!
0l!
0m!
0n!
0o!
0p!
0q!
0r!
1s!
0t!
0u!
1v!
0w!
0x!
0y!
0z!
0{!
0|!
0}!
0~!
0!"
0""
1#"
0$"
0%"
1&"
0'"
0("
0)"
0*"
0+"
0,"
0-"
0."
0/"
00"
11"
02"
03"
14"
05"
06"
07"
08"
09"
0:"
0;"
0<"
0="
0>"
1?"
0@"
0A"
1B"
0C"
0D"
0E"
0F"
0G"
0H"
0I"
0J"
0K"
0L"
1M"
0N"
0O"
1P"
0Q"
0R"
0S"
0T"
0U"
0V"
0W"
0X"
0Y"
0Z"
1["
0\"
0]"
1^"
0_"
0`"
0a"
0b"
0c"
0d"
0e"
0f"
0g"
0h"
1i"
0j"
0k"
1l"
0m"
0n"
0o"
0p"
0q"
0r"
0s"
0t"
0u"
0v"
1w"
0x"
0y"
1z"
0{"
0|"
0}"
0~"
0!#
0"#
0##
0$#
0%#
0&#
1'#
0(#
0)#
1*#
0+#
0,#
0-#
0.#
0/#
00#
01#
02#
03#
04#
$end
#5000
1#
1m
1n
1%!
1O
1&!
0~
1D
1'!
0#!
0$!
00!
0*!
1+!
11!
#10000
0#
0m
0n
#15000
1#
1m
1n
1,!
0%!
0O
1P
0-!
0'!
0&!
1~
1C
0D
1.!
10!
1*!
1-!
1'!
1#!
0+!
1$!
0.!
00!
0*!
12!
1+!
02!
#20000
0#
0m
0n
#25000
1#
1m
1n
1%!
1O
1&!
0~
1D
0-!
0'!
0#!
0$!
1.!
10!
1*!
0+!
12!
#30000
0#
0m
0n
#35000
1#
1m
1n
13!
0,!
0%!
0O
0P
1Q
14!
0.!
1-!
1'!
0&!
1~
1B
0C
0D
15!
01!
04!
1.!
00!
0*!
0'!
1#!
02!
1+!
1$!
18!
05!
17!
10!
1*!
19!
12!
0+!
07!
11!
09!
08!
#40000
0#
0m
0n
#45000
1#
1m
1n
1%!
1O
1&!
0~
1D
1'!
0#!
0$!
00!
0*!
1+!
17!
01!
18!
#50000
0#
0m
0n
#55000
1#
1m
1n
1,!
0%!
0O
1P
0-!
0'!
0&!
1~
1C
0D
14!
0.!
10!
1*!
1-!
1'!
1#!
0+!
1$!
15!
07!
04!
1.!
00!
0*!
02!
1+!
05!
17!
19!
12!
09!
#60000
0#
0m
0n
#65000
1#
1m
1n
1%!
1O
1&!
0~
1D
0-!
0'!
0#!
0$!
14!
0.!
10!
1*!
0+!
15!
07!
02!
19!
#70000
0#
0m
0n
#75000
1#
1m
1n
1:!
03!
0,!
0%!
0O
0P
0Q
1R
0;!
05!
04!
1.!
1-!
1'!
0&!
1~
1A
0B
0C
0D
1<!
08!
1;!
15!
11!
0.!
00!
0*!
0'!
1#!
09!
12!
1+!
1$!
1?!
0<!
18!
10!
1*!
1@!
19!
02!
0+!
0?!
01!
0@!
#80000
0#
0m
0n
#85000
1#
1m
1n
1%!
1O
1&!
0~
1D
1'!
0#!
0$!
00!
0*!
1+!
11!
#90000
0#
0m
0n
#95000
1#
1m
1n
1,!
0%!
0O
1P
0-!
0'!
0&!
1~
1C
0D
1.!
10!
1*!
1-!
1'!
1#!
0+!
1$!
0.!
00!
0*!
12!
1+!
02!
#100000
1$
0#
1q
0m
0n
1v
#105000
1#
1m
1n
0:!
1|
1N
0R
05!
0"!
0z
0A
1E
08!
1)!
0#!
09!
1*!
#110000
0#
0m
0n
#115000
1#
1m
1n
#120000
0#
0m
0n
#125000
1#
1m
1n
#130000
0$
0#
0q
0m
0n
0{
0v
#135000
1#
1m
1n
1%!
1O
1&!
0~
1D
0-!
0'!
0)!
1#!
0$!
1.!
10!
0+!
12!
#140000
0#
0m
0n
#145000
1#
1m
1n
13!
0,!
0%!
0O
0P
1Q
14!
0.!
1-!
1'!
0&!
1~
1B
0C
0D
15!
01!
04!
1.!
00!
0*!
0'!
1)!
0#!
02!
1+!
1$!
18!
05!
17!
19!
12!
0+!
09!
#150000
0#
0m
0n
#155000
1#
1m
1n
1%!
1O
1&!
0~
1D
1'!
0)!
1#!
0$!
1+!
#160000
0#
0m
0n
#165000
1#
1m
1n
1,!
0%!
0O
1P
0-!
0'!
0&!
1~
1C
0D
14!
0.!
10!
1*!
1-!
1'!
1)!
0#!
0+!
1$!
15!
07!
04!
1.!
00!
02!
1+!
05!
17!
19!
12!
09!
#170000
0#
0m
0n
#175000
1#
1m
1n
1%!
1O
1&!
0~
1D
0-!
0'!
0)!
1#!
0$!
14!
0.!
10!
0+!
15!
07!
02!
19!
#180000
0#
0m
0n
#185000
1#
1m
1n
1:!
03!
0,!
0%!
0O
0P
0Q
1R
0;!
05!
04!
1.!
1-!
1'!
0&!
1~
1A
0B
0C
0D
1<!
08!
1;!
15!
11!
0.!
00!
0*!
0'!
1)!
0#!
09!
12!
1+!
1$!
1?!
0<!
18!
1@!
19!
02!
0+!
0?!
0@!
#190000
0#
0m
0n
#195000
1#
1m
1n
1%!
1O
1&!
0~
1D
1'!
0)!
1#!
0$!
1+!
#200000
0#
0m
0n
#205000
1#
1m
1n
1,!
0%!
0O
1P
0-!
0'!
0&!
1~
1C
0D
1.!
10!
1*!
1-!
1'!
1)!
0#!
0+!
1$!
0.!
00!
12!
1+!
02!
#210000
0#
0m
0n
#215000
1#
1m
1n
1%!
1O
1&!
0~
1D
0-!
0'!
0)!
1#!
0$!
1.!
10!
0+!
12!
#220000
0#
0m
0n
#225000
1#
1m
1n
13!
0,!
0%!
0O
0P
1Q
14!
0.!
1-!
1'!
0&!
1~
1B
0C
0D
0;!
05!
01!
04!
1.!
00!
0*!
0'!
1)!
0#!
02!
1+!
1$!
1<!
08!
1;!
15!
17!
09!
12!
0+!
1?!
0<!
0>!
1@!
19!
0@!
#230000
0#
0m
0n
#235000
1#
1m
1n
1%!
1O
1&!
0~
1D
1'!
0)!
1#!
0$!
1+!
#240000
0#
0m
0n
#245000
1#
1m
1n
1,!
0%!
0O
1P
0-!
0'!
0&!
1~
1C
0D
14!
0.!
10!
1*!
1-!
1'!
1)!
0#!
0+!
1$!
0;!
05!
07!
04!
1.!
00!
02!
1+!
1<!
1>!
1;!
15!
17!
09!
12!
0<!
0>!
1@!
19!
0@!
#250000
0#
0m
0n
#255000
1#
1m
1n
1%!
1O
1&!
0~
1D
0-!
0'!
0)!
1#!
0$!
14!
0.!
10!
0+!
0;!
05!
07!
02!
1<!
1>!
09!
1@!
#260000
0#
0m
0n
#265000
1#
1m
1n
1A!
0:!
03!
0,!
0%!
0O
0P
0Q
0R
1S
1B!
0<!
1;!
15!
04!
1.!
1-!
1'!
0&!
1~
1@
0A
0B
0C
0D
1C!
0?!
0B!
1<!
18!
05!
11!
0.!
00!
0*!
0'!
1)!
0#!
0@!
19!
12!
1+!
1$!
1F!
0C!
1?!
08!
1G!
1@!
09!
02!
0+!
0F!
0G!
#270000
0#
0m
0n
#275000
1#
1m
1n
1%!
1O
1&!
0~
1D
1'!
0)!
1#!
0$!
1+!
#280000
0#
0m
0n
#285000
1#
1m
1n
1,!
0%!
0O
1P
0-!
0'!
0&!
1~
1C
0D
1.!
10!
1*!
1-!
1'!
1)!
0#!
0+!
1$!
0.!
00!
12!
1+!
02!
#290000
0#
0m
0n
#295000
1#
1m
1n
1%!
1O
1&!
0~
1D
0-!
0'!
0)!
1#!
0$!
1.!
10!
0+!
12!
#300000
0#
0m
0n
#305000
1#
1m
1n
13!
0,!
0%!
0O
0P
1Q
14!
0.!
1-!
1'!
0&!
1~
1B
0C
0D
15!
01!
04!
1.!
00!
0*!
0'!
1)!
0#!
02!
1+!
1$!
18!
05!
17!
19!
12!
0+!
09!
#310000
0#
0m
0n
#315000
1#
1m
1n
1%!
1O
1&!
0~
1D
1'!
0)!
1#!
0$!
1+!
#320000
0#
0m
0n
#325000
1#
1m
1n
1,!
0%!
0O
1P
0-!
0'!
0&!
1~
1C
0D
14!
0.!
10!
1*!
1-!
1'!
1)!
0#!
0+!
1$!
15!
07!
04!
1.!
00!
02!
1+!
05!
17!
19!
12!
09!
#330000
0#
0m
0n
#335000
1#
1m
1n
1%!
1O
1&!
0~
1D
0-!
0'!
0)!
1#!
0$!
14!
0.!
10!
0+!
15!
07!
02!
19!
#340000
0#
0m
0n
#345000
1#
1m
1n
1:!
03!
0,!
0%!
0O
0P
0Q
1R
0;!
05!
04!
1.!
1-!
1'!
0&!
1~
1A
0B
0C
0D
1B!
0<!
08!
1;!
15!
11!
0.!
00!
0*!
0'!
1)!
0#!
09!
12!
1+!
1$!
1C!
0?!
0B!
1<!
18!
0@!
19!
02!
0+!
1F!
0C!
1?!
1G!
1@!
0F!
0G!
#350000
0#
0m
0n
#355000
1#
1m
1n
1%!
1O
1&!
0~
1D
1'!
0)!
1#!
0$!
1+!
#360000
0#
0m
0n
#365000
1#
1m
1n
1,!
0%!
0O
1P
0-!
0'!
0&!
1~
1C
0D
1.!
10!
1*!
1-!
1'!
1)!
0#!
0+!
1$!
0.!
00!
12!
1+!
02!
#370000
0#
0m
0n
#375000
1#
1m
1n
1%!
1O
1&!
0~
1D
0-!
0'!
0)!
1#!
0$!
1.!
10!
0+!
12!
#380000
0#
0m
0n
#385000
1#
1m
1n
13!
0,!
0%!
0O
0P
1Q
14!
0.!
1-!
1'!
0&!
1~
1B
0C
0D
0;!
05!
01!
04!
1.!
00!
0*!
0'!
1)!
0#!
02!
1+!
1$!
1B!
0<!
08!
1;!
15!
17!
09!
12!
0+!
1C!
0?!
0B!
1<!
0>!
0@!
19!
1F!
0C!
1E!
1G!
1@!
0G!
#390000
0#
0m
0n
#395000
1#
1m
1n
1%!
1O
1&!
0~
1D
1'!
0)!
1#!
0$!
1+!
#400000
1%
1"
0#
1t
1s
0m
0n
0}
1v
1G!
0@!
09!
02!
0+!
1$!
#405000
1#
1m
1n
1H!
0A!
0:!
03!
0|
0N
0Q
0R
0S
1T
1C!
0<!
05!
0.!
1"!
1z
1?
0@
0A
0B
0E
0L!
0F!
0E!
1?!
1>!
18!
07!
11!
0#!
1{
1M!
1L!
1F!
0?!
08!
0G!
1@!
19!
12!
0$!
0M!
1N!
1G!
0@!
09!
0N!
#410000
0#
0m
0n
#415000
1#
1m
1n
13!
0%!
1|
1N
0O
1Q
1.!
0&!
1~
0"!
0z
1B
0D
1E
17!
01!
0'!
1)!
0{
18!
02!
19!
#420000
0#
0m
0n
#425000
1#
1m
1n
1:!
03!
0|
0N
0Q
1R
15!
0.!
1"!
1z
1A
0B
0E
0>!
08!
07!
11!
0)!
1#!
1{
1?!
1>!
18!
10!
1*!
09!
12!
1$!
0?!
01!
1@!
19!
1+!
0@!
02!
#430000
0#
0m
0n
#435000
1#
1m
1n
1,!
1%!
1|
1N
1O
1P
1'!
1&!
0~
0"!
0z
1C
1D
1E
00!
0*!
0-!
0'!
0{
11!
1.!
10!
1*!
0+!
12!
1+!
#440000
0#
0m
0n
#445000
1#
1m
1n
13!
0|
0N
1Q
14!
0.!
1"!
1z
1B
0E
0;!
05!
01!
0#!
1{
1<!
08!
02!
0$!
1?!
09!
1@!
#450000
0%
0"
0#
0t
0s
0m
0n
1}
0v
0+!
#455000
1#
1m
1n
1A!
0:!
03!
0,!
0%!
0O
0P
0Q
0R
1S
1B!
0<!
1;!
15!
04!
1.!
1-!
1'!
0&!
1~
1@
0A
0B
0C
0D
0I!
0C!
0?!
0B!
1<!
18!
05!
11!
0.!
00!
0*!
0'!
1#!
0@!
19!
12!
1+!
1$!
1J!
0F!
1I!
1C!
1?!
08!
10!
1*!
0G!
1@!
09!
02!
0+!
1M!
0J!
1F!
01!
1N!
1G!
0M!
0N!
#460000
0#
0m
0n
#465000
1#
1m
1n
1%!
1O
1&!
0~
1D
1'!
0#!
0$!
00!
0*!
1+!
11!
#470000
0#
0m
0n
#475000
1#
1m
1n
1,!
0%!
0O
1P
0-!
0'!
0&!
1~
1C
0D
1.!
10!
1*!
1-!
1'!
1#!
0+!
1$!
0.!
00!
0*!
12!
1+!
02!
#480000
0#
0m
0n
#485000
1#
1m
1n
1%!
1O
1&!
0~
1D
0-!
0'!
0#!
0$!
1.!
10!
1*!
0+!
12!
#490000
0#
0m
0n
#495000
1#
1m
1n
13!
0,!
0%!
0O
0P
1Q
14!
0.!
1-!
1'!
0&!
1~
1B
0C
0D
15!
01!
04!
1.!
00!
0*!
0'!
1#!
02!
1+!
1$!
18!
05!
17!
10!
1*!
19!
12!
0+!
07!
11!
09!
08!
#500000
0#
0m
0n
#505000
1#
1m
1n
1%!
1O
1&!
0~
1D
1'!
0#!
0$!
00!
0*!
1+!
17!
01!
18!
#510000
0#
0m
0n
#515000
1#
1m
1n
1,!
0%!
0O
1P
0-!
0'!
0&!
1~
1C
0D
14!
0.!
10!
1*!
1-!
1'!
1#!
0+!
1$!
15!
07!
04!
1.!
00!
0*!
02!
1+!
05!
17!
19!
12!
09!
#520000
1"
0#
1s
0m
0n
#525000
1#
1m
1n
1%!
1O
1&!
0~
1D
0-!
0'!
0#!
0$!
14!
0.!
10!
1*!
0+!
15!
07!
02!
19!
#530000
0#
0m
0n
#535000
1#
1m
1n
1:!
03!
0,!
0%!
0O
0P
0Q
1R
0;!
05!
04!
1.!
1-!
1'!
0&!
1~
1A
0B
0C
0D
1B!
0<!
08!
1;!
15!
11!
0.!
00!
0*!
0'!
1#!
09!
12!
1+!
1$!
0I!
0C!
0?!
0B!
1<!
18!
10!
1*!
0@!
19!
02!
0+!
1J!
0F!
1I!
1C!
1?!
01!
0G!
1@!
1M!
0J!
1F!
1N!
1G!
0M!
0N!
#540000
0#
0m
0n
#545000
1#
1m
1n
1%!
1O
1&!
0~
1D
1'!
0#!
0$!
00!
0*!
1+!
11!
#550000
0#
0m
0n
#555000
1#
1m
1n
1,!
0%!
0O
1P
0-!
0'!
0&!
1~
1C
0D
1.!
10!
1*!
1-!
1'!
1#!
0+!
1$!
0.!
00!
0*!
12!
1+!
02!
#560000
0#
0m
0n
#565000
1#
1m
1n
1%!
1O
1&!
0~
1D
0-!
0'!
0#!
0$!
1.!
10!
1*!
0+!
12!
#570000
0#
0m
0n
#575000
1#
1m
1n
13!
0,!
0%!
0O
0P
1Q
14!
0.!
1-!
1'!
0&!
1~
1B
0C
0D
0;!
05!
01!
04!
1.!
00!
0*!
0'!
1#!
02!
1+!
1$!
1B!
0<!
08!
1;!
15!
17!
10!
1*!
09!
12!
0+!
0I!
0C!
0?!
0B!
1<!
0>!
07!
11!
0@!
19!
1J!
0F!
1I!
1C!
1E!
1>!
18!
0G!
1@!
1M!
0J!
0L!
0E!
1?!
1N!
1G!
1L!
1F!
0N!
0M!
#580000
0#
0m
0n
#585000
1#
1m
1n
1%!
1O
1&!
0~
1D
1'!
0#!
0$!
00!
0*!
1+!
17!
01!
0>!
08!
1E!
0?!
0L!
0F!
1M!
#590000
0"
0#
0s
0m
0n
