Galetron/PC/simulation/qsim/PC.msim.vcd
$comment
	File created using the following command:
		vcd file PC.msim.vcd -direction
$end
$date
	Thu Feb 22 20:15:21 2018
$end
$version
	ModelSim Version 10.4b
$end
$timescale
	1ps
$end

$scope module PC_vlg_vec_tst $end
$var reg 1 ! HLT $end
$var reg 12 " address [11:0] $end
$var reg 1 # bnegative $end
$var reg 1 $ bzero $end
$var reg 1 % clock $end
$var reg 1 & jump $end
$var reg 1 ' jump_context_exchange $end
$var reg 1 ( negative $end
$var reg 1 ) resetCPU $end
$var reg 1 * zero $end
$var wire 1 + programCounter [11] $end
$var wire 1 , programCounter [10] $end
$var wire 1 - programCounter [9] $end
$var wire 1 . programCounter [8] $end
$var wire 1 / programCounter [7] $end
$var wire 1 0 programCounter [6] $end
$var wire 1 1 programCounter [5] $end
$var wire 1 2 programCounter [4] $end
$var wire 1 3 programCounter [3] $end
$var wire 1 4 programCounter [2] $end
$var wire 1 5 programCounter [1] $end
$var wire 1 6 programCounter [0] $end

$scope module i1 $end
$var wire 1 7 gnd $end
$var wire 1 8 vcc $end
$var wire 1 9 unknown $end
$var tri1 1 : devclrn $end
$var tri1 1 ; devpor $end
$var tri1 1 < devoe $end
$var wire 1 = HLT~input_o $end
$var wire 1 > programCounter[0]~output_o $end
$var wire 1 ? programCounter[1]~output_o $end
$var wire 1 @ programCounter[2]~output_o $end
$var wire 1 A programCounter[3]~output_o $end
$var wire 1 B programCounter[4]~output_o $end
$var wire 1 C programCounter[5]~output_o $end
$var wire 1 D programCounter[6]~output_o $end
$var wire 1 E programCounter[7]~output_o $end
$var wire 1 F programCounter[8]~output_o $end
$var wire 1 G programCounter[9]~output_o $end
$var wire 1 H programCounter[10]~output_o $end
$var wire 1 I programCounter[11]~output_o $end
$var wire 1 J clock~input_o $end
$var wire 1 K clock~inputclkctrl_outclk $end
$var wire 1 L jump~input_o $end
$var wire 1 M address[0]~input_o $end
$var wire 1 N negative~input_o $end
$var wire 1 O bnegative~input_o $end
$var wire 1 P zero~input_o $end
$var wire 1 Q bzero~input_o $end
$var wire 1 R select~combout $end
$var wire 1 S pcInc[0]~0_combout $end
$var wire 1 T branchAdd[0]~0_combout $end
$var wire 1 U Add1~0_combout $end
$var wire 1 V programCounter[0]~0_combout $end
$var wire 1 W resetCPU~input_o $end
$var wire 1 X resetCPU~_wirecell_combout $end
$var wire 1 Y jump_context_exchange~input_o $end
$var wire 1 Z programCounter[11]~11_combout $end
$var wire 1 [ state~5_combout $end
$var wire 1 \ counter[9]~17_combout $end
$var wire 1 ] counter[9]~18 $end
$var wire 1 ^ counter[10]~19_combout $end
$var wire 1 _ counter[10]~20 $end
$var wire 1 ` counter[11]~21_combout $end
$var wire 1 a counter[11]~22 $end
$var wire 1 b counter[12]~23_combout $end
$var wire 1 c counter[12]~24 $end
$var wire 1 d counter[13]~25_combout $end
$var wire 1 e counter[13]~26 $end
$var wire 1 f counter[14]~27_combout $end
$var wire 1 g counter[14]~28 $end
$var wire 1 h counter[15]~29_combout $end
$var wire 1 i counter[15]~30 $end
$var wire 1 j counter[16]~31_combout $end
$var wire 1 k counter[16]~32 $end
$var wire 1 l counter[17]~33_combout $end
$var wire 1 m counter[17]~34 $end
$var wire 1 n counter[18]~35_combout $end
$var wire 1 o counter[18]~36 $end
$var wire 1 p counter[19]~37_combout $end
$var wire 1 q counter[19]~38 $end
$var wire 1 r counter[20]~39_combout $end
$var wire 1 s counter[20]~40 $end
$var wire 1 t counter[21]~41_combout $end
$var wire 1 u counter[21]~42 $end
$var wire 1 v counter[22]~43_combout $end
$var wire 1 w counter[22]~44 $end
$var wire 1 x counter[23]~45_combout $end
$var wire 1 y counter[23]~46 $end
$var wire 1 z counter[24]~47_combout $end
$var wire 1 { counter[24]~48 $end
$var wire 1 | counter[25]~49_combout $end
$var wire 1 } state.10~q $end
$var wire 1 ~ programCounter[0]~reg0_q $end
$var wire 1 !! address[1]~input_o $end
$var wire 1 "! pcInc[0]~1 $end
$var wire 1 #! pcInc[1]~2_combout $end
$var wire 1 $! branchAdd[0]~1 $end
$var wire 1 %! branchAdd[1]~2_combout $end
$var wire 1 &! Add1~1_combout $end
$var wire 1 '! programCounter[1]~1_combout $end
$var wire 1 (! programCounter[1]~reg0_q $end
$var wire 1 )! pcInc[1]~3 $end
$var wire 1 *! pcInc[2]~4_combout $end
$var wire 1 +! address[2]~input_o $end
$var wire 1 ,! branchAdd[1]~3 $end
$var wire 1 -! branchAdd[2]~4_combout $end
$var wire 1 .! programCounter[2]~2_combout $end
$var wire 1 /! programCounter[2]~reg0_q $end
$var wire 1 0! address[3]~input_o $end
$var wire 1 1! pcInc[2]~5 $end
$var wire 1 2! pcInc[3]~6_combout $end
$var wire 1 3! branchAdd[2]~5 $end
$var wire 1 4! branchAdd[3]~6_combout $end
$var wire 1 5! Add1~2_combout $end
$var wire 1 6! programCounter[3]~3_combout $end
$var wire 1 7! programCounter[3]~reg0_q $end
$var wire 1 8! address[4]~input_o $end
$var wire 1 9! pcInc[3]~7 $end
$var wire 1 :! pcInc[4]~8_combout $end
$var wire 1 ;! branchAdd[3]~7 $end
$var wire 1 <! branchAdd[4]~8_combout $end
$var wire 1 =! Add1~3_combout $end
$var wire 1 >! programCounter[4]~4_combout $end
$var wire 1 ?! programCounter[4]~reg0_q $end
$var wire 1 @! address[5]~input_o $end
$var wire 1 A! pcInc[4]~9 $end
$var wire 1 B! pcInc[5]~10_combout $end
$var wire 1 C! branchAdd[4]~9 $end
$var wire 1 D! branchAdd[5]~10_combout $end
$var wire 1 E! Add1~4_combout $end
$var wire 1 F! programCounter[5]~5_combout $end
$var wire 1 G! programCounter[5]~reg0_q $end
$var wire 1 H! pcInc[5]~11 $end
$var wire 1 I! pcInc[6]~12_combout $end
$var wire 1 J! address[6]~input_o $end
$var wire 1 K! branchAdd[5]~11 $end
$var wire 1 L! branchAdd[6]~12_combout $end
$var wire 1 M! programCounter[6]~6_combout $end
$var wire 1 N! programCounter[6]~reg0_q $end
$var wire 1 O! pcInc[6]~13 $end
$var wire 1 P! pcInc[7]~14_combout $end
$var wire 1 Q! address[7]~input_o $end
$var wire 1 R! branchAdd[6]~13 $end
$var wire 1 S! branchAdd[7]~14_combout $end
$var wire 1 T! programCounter[7]~7_combout $end
$var wire 1 U! programCounter[7]~reg0_q $end
$var wire 1 V! address[8]~input_o $end
$var wire 1 W! pcInc[7]~15 $end
$var wire 1 X! pcInc[8]~16_combout $end
$var wire 1 Y! branchAdd[7]~15 $end
$var wire 1 Z! branchAdd[8]~16_combout $end
$var wire 1 [! programCounter~12_combout $end
$var wire 1 \! programCounter~13_combout $end
$var wire 1 ]! programCounter~14_combout $end
$var wire 1 ^! programCounter[8]~reg0_q $end
$var wire 1 _! pcInc[8]~17 $end
$var wire 1 `! pcInc[9]~18_combout $end
$var wire 1 a! address[9]~input_o $end
$var wire 1 b! branchAdd[8]~17 $end
$var wire 1 c! branchAdd[9]~18_combout $end
$var wire 1 d! programCounter[9]~8_combout $end
$var wire 1 e! programCounter[9]~reg0_q $end
$var wire 1 f! address[10]~input_o $end
$var wire 1 g! programCounter[10]~15_combout $end
$var wire 1 h! pcInc[9]~19 $end
$var wire 1 i! pcInc[10]~20_combout $end
$var wire 1 j! branchAdd[9]~19 $end
$var wire 1 k! branchAdd[10]~20_combout $end
$var wire 1 l! programCounter[10]~9_combout $end
$var wire 1 m! programCounter[10]~reg0feeder_combout $end
$var wire 1 n! programCounter[10]~reg0_q $end
$var wire 1 o! pcInc[10]~21 $end
$var wire 1 p! pcInc[11]~22_combout $end
$var wire 1 q! address[11]~input_o $end
$var wire 1 r! branchAdd[10]~21 $end
$var wire 1 s! branchAdd[11]~22_combout $end
$var wire 1 t! programCounter[11]~10_combout $end
$var wire 1 u! programCounter[11]~reg0_q $end
$var wire 1 v! counter [25] $end
$var wire 1 w! counter [24] $end
$var wire 1 x! counter [23] $end
$var wire 1 y! counter [22] $end
$var wire 1 z! counter [21] $end
$var wire 1 {! counter [20] $end
$var wire 1 |! counter [19] $end
$var wire 1 }! counter [18] $end
$var wire 1 ~! counter [17] $end
$var wire 1 !" counter [16] $end
$var wire 1 "" counter [15] $end
$var wire 1 #" counter [14] $end
$var wire 1 $" counter [13] $end
$var wire 1 %" counter [12] $end
$var wire 1 &" counter [11] $end
$var wire 1 '" counter [10] $end
$var wire 1 (" counter [9] $end
$var wire 1 )" counter [8] $end
$var wire 1 *" counter [7] $end
$var wire 1 +" counter [6] $end
$var wire 1 ," counter [5] $end
$var wire 1 -" counter [4] $end
$var wire 1 ." counter [3] $end
$var wire 1 /" counter [2] $end
$var wire 1 0" counter [1] $end
$var wire 1 1" counter [0] $end
$upscope $end
$upscope $end
$enddefinitions $end
#0
$dumpvars
0!
b0 "
0#
0$
0%
0&
0'
0(
0)
0*
06
05
04
03
02
01
00
0/
0.
0-
0,
0+
07
18
x9
1:
1;
1<
0=
0>
0?
0@
0A
0B
0C
0D
0E
0F
0G
0H
0I
0J
0K
0L
0M
0N
0O
0P
0Q
0R
1S
1T
1U
1V
0W
1X
0Y
0Z
1[
1\
0]
0^
1_
0`
0a
1b
1c
0d
0e
0f
1g
0h
0i
0j
1k
1l
0m
0n
1o
1p
0q
1r
1s
1t
0u
1v
1w
0x
0y
0z
1{
0|
0}
0~
0!!
0"!
0#!
0$!
0%!
0&!
0'!
0(!
1)!
0*!
0+!
1,!
0-!
0.!
0/!
00!
01!
02!
03!
04!
05!
06!
07!
08!
19!
0:!
1;!
0<!
0=!
0>!
0?!
0@!
0A!
0B!
0C!
0D!
0E!
0F!
0G!
1H!
0I!
0J!
1K!
0L!
0M!
0N!
0O!
0P!
0Q!
0R!
0S!
0T!
0U!
0V!
1W!
0X!
1Y!
0Z!
0[!
0\!
0]!
0^!
0_!
0`!
0a!
0b!
0c!
0d!
0e!
0f!
0g!
1h!
0i!
1j!
0k!
0l!
0m!
0n!
0o!
0p!
0q!
0r!
0s!
0t!
0u!
z1"
z0"
z/"
z."
z-"
z,"
z+"
z*"
z)"
0("
0'"
0&"
0%"
0$"
0#"
0""
0!"
0~!
0}!
0|!
0{!
0z!
0y!
0x!
0w!
0v!
$end
#5000
1%
1J
1K
1y!
1z!
1{!
1|!
1~!
1%"
1("
0w
1u
0s
1q
1m
0c
1]
0v
0t
0r
0p
0l
0b
0\
1x
1v
1t
1r
1n
1d
1^
#10000
b100 "
b101 "
0%
1M
1+!
0J
0K
1$!
0T
1-!
1%!
#15000
1%
1J
1K
1x!
0|!
1}!
0~!
1$"
0%"
1'"
0("
1y
0q
0o
0m
1e
1c
0_
0]
0x
1p
0n
1l
0d
1b
0^
1\
1q
1o
0e
1_
1z
0r
0p
1n
1f
1d
1`
1^
0q
1r
1p
0f
0`
0r
#20000
b1101 "
b1111 "
b1011 "
b1010 "
0%
0M
1!!
0+!
10!
0J
0K
0$!
1T
0,!
0%!
0-!
14!
1,!
1%!
1-!
0-!
#25000
1%
1J
1K
1w!
0x!
0{!
1|!
1~!
1%"
1("
0{
0y
1s
1q
1m
0c
1]
0z
1x
1r
0p
0l
0b
0\
1{
0s
0o
1e
0_
1|
1z
0t
0r
0n
0d
0^
0|
1t
1p
1f
1`
#30000
b1110 "
b1111 "
0%
1M
1+!
0J
0K
1$!
0T
1-!
0,!
0%!
13!
0-!
0;!
04!
1<!
#35000
1%
1J
1K
1x!
0}!
0~!
1#"
0$"
0%"
1&"
0'"
0("
1y
1o
0m
0g
0e
1c
1a
1_
0]
0x
1n
1l
0f
1d
1b
0`
1^
1\
0{
1g
0c
0a
0z
0p
0n
1h
1f
0d
0b
1`
0^
1c
1|
0h
1d
1b
0d
#40000
b11111 "
b10111 "
b10101 "
b10100 "
0%
0M
0!!
00!
18!
0J
0K
0$!
1T
1,!
1%!
1;!
14!
1C!
0<!
0%!
03!
1-!
0C!
1<!
1D!
04!
0D!
#45000
1%
1J
1K
1v!
0w!
0x!
0|!
1~!
1%"
1("
1{
0y
0q
1m
0c
1]
0|
1z
1x
1p
0l
0b
0\
1s
1|
0z
1r
1n
1d
1^
0t
#50000
1'
b10000 "
b11000 "
b11001 "
0%
1Y
1M
0+!
10!
0J
0K
1Z
1$!
0T
0-!
14!
0[
1%!
#55000
1%
1J
1K
1}
0v!
0y!
0z!
0~!
0#"
0%"
0&"
0("
0u
0m
1c
0]
0|
0v
1t
1l
0f
1b
0`
1\
1w
1v
0n
0d
0^
0x
#60000
b11011 "
b11111 "
b11110 "
0%
0M
1!!
1+!
0J
0K
0$!
1T
0,!
0%!
1-!
1,!
1%!
13!
0-!
03!
1-!
0;!
04!
1;!
14!
1C!
0<!
0C!
1<!
1D!
0D!
#65000
1%
1J
1K
0}
1n!
1G!
1?!
17!
1(!
1~
1>
1?
1A
1B
1C
1H
1i!
1B!
1:!
12!
1#!
1"!
0S
1,
11
12
13
15
16
1l!
1k!
1E!
1D!
1=!
1C!
0<!
15!
0;!
04!
1&!
0,!
0%!
0)!
0#!
0U
0T
0K!
0D!
1<!
13!
0-!
0&!
1*!
1,!
1%!
1m!
1F!
1>!
16!
1'!
0V
1L!
14!
1.!
0'!
#70000
b111110 "
b101110 "
b100110 "
b100010 "
b100011 "
0%
1M
0+!
00!
08!
1@!
0J
0K
1T
03!
1-!
04!
0<!
1D!
1;!
14!
0C!
1<!
0D!
#75000
1%
1J
1K
1y!
1z!
1{!
1|!
1~!
1%"
1("
0w
1u
0s
1q
1m
0c
1]
0v
0t
0r
0p
0l
0b
0\
1x
1v
1t
1r
1n
1d
1^
#80000
b100001 "
b101001 "
b101000 "
0%
0M
0!!
10!
0J
0K
0T
0%!
0;!
04!
1C!
0<!
1D!
#85000
1%
1J
1K
1x!
0|!
1}!
0~!
1$"
0%"
1'"
0("
1y
0q
0o
0m
1e
1c
0_
0]
0x
1p
0n
1l
0d
1b
0^
1\
1q
1o
0e
1_
1z
0r
0p
1n
1f
1d
1`
1^
0q
1r
1p
0f
0`
0r
#90000
b101100 "
b101101 "
0%
1M
1+!
0J
0K
1T
13!
0-!
14!
#95000
1%
1J
1K
1w!
0x!
0{!
1|!
1~!
1%"
1("
0{
0y
1s
1q
1m
0c
1]
0z
1x
1r
0p
0l
0b
0\
1{
0s
0o
1e
0_
1|
1z
0t
0r
0n
0d
0^
0|
1t
1p
1f
1`
#100000
0'
b111101 "
b111111 "
b110111 "
b110011 "
b110010 "
0%
0Y
0M
1!!
0+!
00!
18!
0J
0K
0Z
0T
1%!
03!
1-!
04!
1<!
1[
1;!
14!
0<!
#105000
1%
1J
1K
1x!
0}!
0~!
1#"
0$"
0%"
1&"
0'"
0("
1y
1o
0m
0g
0e
1c
1a
1_
0]
0x
1n
1l
0f
1d
1b
0`
1^
1\
0{
1g
0c
0a
0z
0p
0n
1h
1f
0d
0b
1`
0^
1c
1|
0h
1d
1b
0d
#110000
b110110 "
b110111 "
0%
1M
1+!
0J
0K
1T
13!
0-!
0;!
04!
1<!
#115000
1%
1J
1K
1v!
0w!
0x!
0|!
1~!
1%"
1("
1{
0y
0q
1m
0c
1]
0|
1z
1x
1p
0l
0b
0\
1s
1|
0z
1r
1n
1d
1^
0t
#120000
b110101 "
b111101 "
b111100 "
0%
0M
0!!
10!
0J
0K
0T
0%!
14!
#125000
1%
1J
1K
1}
0v!
0y!
0z!
0~!
0#"
0%"
0&"
0("
0u
0m
1c
0]
0|
0v
1t
1l
0f
1b
0`
1\
1w
1v
0n
0d
0^
0x
#130000
b1111100 "
b1011100 "
b1001100 "
b1001000 "
b1000000 "
b1000001 "
0%
1M
0+!
00!
08!
0@!
1J!
0J
0K
1T
03!
1-!
04!
0<!
0D!
1R!
0L!
1;!
14!
1S!
0C!
1<!
1K!
1D!
0R!
1L!
0S!
#135000
1%
1J
1K
1/!
0(!
0~
0>
0?
1@
11!
0*!
1)!
1#!
0"!
1S
14
05
06
09!
02!
0-!
01!
1*!
1&!
1%!
0#!
1U
1$!
0T
0.!
1A!
0:!
05!
04!
19!
12!
1-!
0&!
1.!
1'!
1V
0H!
0B!
0=!
0<!
15!
0A!
1:!
14!
06!
0'!
1I!
0E!
0D!
1=!
1H!
1B!
1<!
0>!
16!
1R!
0L!
1E!
0I!
1D!
1M!
0F!
1>!
1S!
0R!
1L!
0M!
1F!
0S!
#140000
b1000011 "
b1000111 "
b1000110 "
0%
0M
1!!
1+!
0J
0K
0$!
1T
0,!
0%!
13!
0-!
1,!
1%!
1-!
0;!
04!
0-!
1C!
0<!
0K!
0D!
1R!
0L!
1S!
#145000
1%
1J
1K
1~
1>
1"!
0S
16
1#!
0U
0T
1&!
0,!
0%!
0V
1-!
1'!
#150000
1'
b1001110 "
b1001010 "
b1001011 "
0%
1Y
1M
0+!
10!
0J
0K
1Z
1T
0-!
14!
0[
#155000
1%
1J
1K
0}
0/!
1(!
1?
0@
0*!
0)!
0#!
04
15
03!
1-!
1*!
0&!
1,!
1%!
0.!
04!
1.!
0'!
#160000
b1011011 "
b1011001 "
b1010001 "
b1010000 "
0%
0M
0!!
00!
18!
0J
0K
0T
0%!
1;!
14!
1<!
0<!
#165000
1%
1J
1K
1y!
1z!
1{!
1|!
1~!
1%"
1("
0w
1u
0s
1q
1m
0c
1]
0v
0t
0r
0p
0l
0b
0\
1x
1v
1t
1r
1n
1d
1^
#170000
b1010100 "
b1010101 "
0%
1M
1+!
0J
0K
1T
13!
0-!
0;!
04!
1<!
#175000
1%
1J
1K
1x!
0|!
1}!
0~!
1$"
0%"
1'"
0("
1y
0q
0o
0m
1e
1c
0_
0]
0x
1p
0n
1l
0d
1b
0^
1\
1q
1o
0e
1_
1z
0r
0p
1n
1f
1d
1`
1^
0q
1r
1p
0f
0`
0r
#180000
b1010111 "
b1011111 "
b1011011 "
b1011010 "
0%
0M
1!!
0+!
10!
0J
0K
0T
1%!
03!
1-!
14!
04!
#185000
1%
1J
1K
1w!
0x!
0{!
1|!
1~!
1%"
1("
0{
0y
1s
1q
1m
0c
1]
0z
1x
1r
0p
0l
0b
0\
1{
0s
0o
1e
0_
1|
1z
0t
0r
0n
0d
0^
0|
1t
1p
1f
1`
#190000
b1011110 "
b1011111 "
0%
1M
1+!
0J
0K
1T
13!
0-!
14!
#195000
1%
1J
1K
1x!
0}!
0~!
1#"
0$"
0%"
1&"
0'"
0("
1y
1o
0m
0g
0e
1c
1a
1_
0]
0x
1n
1l
0f
1d
1b
0`
1^
1\
0{
1g
0c
0a
0z
0p
0n
1h
1f
0d
0b
1`
0^
1c
1|
0h
1d
1b
0d
#200000
b1111111 "
0'
b1101111 "
b1101101 "
b1100101 "
b1100100 "
0%
0M
0!!
00!
08!
1@!
0Y
0J
0K
0T
0%!
04!
0<!
1D!
0Z
1[
#205000
1%
1J
1K
1v!
0w!
0x!
0|!
1~!
1%"
1("
1{
0y
0q
1m
0c
1]
0|
1z
1x
1p
0l
0b
0\
1s
1|
0z
1r
1n
1d
1^
0t
#210000
b1100000 "
b1101000 "
b1101001 "
0%
1M
0+!
10!
0J
0K
1T
03!
1-!
14!
04!
#215000
1%
1J
1K
1}
0v!
0y!
0z!
0~!
0#"
0%"
0&"
0("
0u
0m
1c
0]
0|
0v
1t
1l
0f
1b
0`
1\
1w
1v
0n
0d
0^
0x
#220000
b1101011 "
b1101111 "
b1101110 "
0%
0M
1!!
1+!
0J
0K
0T
1%!
13!
0-!
14!
#225000
1%
1J
1K
1/!
0(!
0~
0>
0?
1@
11!
0*!
1)!
1#!
0"!
1S
14
05
06
09!
02!
03!
1-!
01!
1*!
1&!
0,!
0%!
0#!
1U
1T
0.!
1A!
0:!
05!
1;!
19!
12!
13!
0&!
1,!
1%!
1.!
1'!
1V
0H!
0B!
0=!
0C!
0A!
1:!
15!
0;!
0-!
06!
0'!
1I!
0E!
1K!
1H!
1B!
1=!
1C!
0>!
16!
0I!
1E!
0K!
1M!
0F!
1>!
0M!
1F!
#230000
b1111110 "
b1110110 "
b1110010 "
b1110011 "
0%
1M
0+!
00!
18!
0J
0K
1$!
0T
03!
1-!
04!
1<!
0,!
0%!
1;!
14!
13!
0-!
0<!
0;!
04!
1<!
#235000
1%
1J
1K
1~
1>
1"!
0S
16
1#!
0U
0$!
1T
1&!
0V
1'!
#240000
b1110001 "
b1111001 "
b1111000 "
0%
0M
0!!
10!
0J
0K
0T
1,!
1%!
14!
03!
1-!
04!
#245000
1%
1J
1K
1(!
0~
0>
1?
0)!
0#!
0"!
1S
15
06
11!
0*!
0&!
0%!
1)!
1#!
1U
1T
09!
02!
0-!
1&!
01!
1*!
1%!
0.!
0'!
1V
1A!
0:!
05!
1;!
14!
19!
12!
1-!
1.!
1'!
0H!
0B!
0=!
0C!
15!
0A!
1:!
0;!
04!
06!
1I!
0E!
1K!
1H!
1B!
1=!
1C!
0>!
16!
0I!
1E!
0K!
1M!
0F!
1>!
0M!
1F!
#250000
1'
b1111100 "
b1111101 "
0%
1Y
1M
1+!
0J
0K
1Z
1$!
0T
13!
0-!
0[
0,!
0%!
14!
1-!
#255000
1%
1J
1K
0}
0/!
1~
1>
0@
0*!
1"!
0S
04
16
0-!
0)!
0#!
0U
0$!
1T
0.!
1*!
0&!
1,!
0V
1.!
0'!
#260000
b11111101 "
b10111101 "
b10011101 "
b10001101 "
b10001111 "
b10000111 "
b10000011 "
b10000010 "
0%
0M
1!!
0+!
00!
08!
0@!
0J!
1Q!
0J
0K
0T
1%!
03!
1-!
04!
0<!
0D!
0R!
1L!
0Y!
0S!
1;!
14!
1Y!
1S!
1Z!
0C!
1<!
0Z!
1K!
1D!
0L!
#265000
1%
1J
1K
1y!
1z!
1{!
1|!
1~!
1%"
1("
0w
1u
0s
1q
1m
0c
1]
0v
0t
0r
0p
0l
0b
0\
1x
1v
1t
1r
1n
1d
1^
#270000
b10000110 "
b10000111 "
0%
1M
1+!
0J
0K
1T
13!
0-!
0;!
04!
1C!
0<!
0K!
0D!
1L!
#275000
1%
1J
1K
1x!
0|!
1}!
0~!
1$"
0%"
1'"
0("
1y
0q
0o
0m
1e
1c
0_
0]
0x
1p
0n
1l
0d
1b
0^
1\
1q
1o
0e
1_
1z
0r
0p
1n
1f
1d
1`
1^
0q
1r
1p
0f
0`
0r
#280000
b10000101 "
b10001101 "
b10001100 "
0%
0M
0!!
10!
0J
0K
0T
0%!
14!
#285000
1%
1J
1K
1w!
0x!
0{!
1|!
1~!
1%"
1("
0{
0y
1s
1q
1m
0c
1]
0z
1x
1r
0p
0l
0b
0\
1{
0s
0o
1e
0_
1|
1z
0t
0r
0n
0d
0^
0|
1t
1p
1f
1`
#290000
b10011100 "
b10011000 "
b10010000 "
b10010001 "
0%
1M
0+!
00!
18!
0J
0K
1T
03!
1-!
04!
1<!
1;!
14!
0<!
#295000
1%
1J
1K
1x!
0}!
0~!
1#"
0$"
0%"
1&"
0'"
0("
1y
1o
0m
0g
0e
1c
1a
1_
0]
0x
1n
1l
0f
1d
1b
0`
1^
1\
0{
1g
0c
0a
0z
0p
0n
1h
1f
0d
0b
1`
0^
1c
1|
0h
1d
1b
0d
#300000
0'
b10010011 "
b10010111 "
b10010110 "
0%
0Y
0M
1!!
1+!
0J
0K
0Z
0T
1%!
13!
0-!
1[
0;!
04!
1<!
#305000
1%
1J
1K
1v!
0w!
0x!
0|!
1~!
1%"
1("
1{
0y
0q
1m
0c
1]
0|
1z
1x
1p
0l
0b
0\
1s
1|
0z
1r
1n
1d
1^
0t
#310000
b10011110 "
b10011010 "
b10011011 "
0%
1M
0+!
10!
0J
0K
1T
03!
1-!
14!
04!
#315000
1%
1J
1K
1}
0v!
0y!
0z!
0~!
0#"
0%"
0&"
0("
0u
0m
1c
0]
0|
0v
1t
1l
0f
1b
0`
1\
1w
1v
0n
0d
0^
0x
#320000
b10111011 "
b10101011 "
b10101001 "
b10100001 "
b10100000 "
0%
0M
0!!
00!
08!
1@!
0J
0K
0T
0%!
1;!
14!
0<!
1D!
0C!
1<!
0D!
#325000
1%
1J
1K
1/!
0(!
0~
0>
0?
1@
11!
0*!
1)!
1#!
0"!
1S
14
05
06
09!
02!
0-!
01!
1*!
1&!
1%!
0#!
1U
1T
0.!
1A!
0:!
05!
04!
19!
12!
1-!
0&!
0%!
1.!
1'!
1V
0H!
0B!
0=!
0<!
15!
0A!
1:!
14!
06!
0'!
1I!
0E!
1K!
1D!
1=!
1H!
1B!
1<!
0>!
16!
1E!
0I!
0K!
0D!
1M!
0F!
1>!
1F!
0M!
#330000
b10100100 "
b10100101 "
0%
1M
1+!
0J
0K
1$!
0T
13!
0-!
1%!
0;!
04!
1C!
0<!
1D!
#335000
1%
1J
1K
1~
1>
1"!
0S
16
1#!
0U
0$!
1T
1&!
0V
1'!
#340000
b10100111 "
b10101111 "
b10101011 "
b10101010 "
0%
0M
1!!
0+!
10!
0J
0K
0T
0,!
0%!
03!
1-!
14!
13!
0-!
04!
14!
#345000
1%
1J
1K
1(!
0~
0>
1?
0)!
0#!
0"!
1S
15
06
11!
0*!
0&!
1,!
1%!
1)!
1#!
1U
1T
09!
02!
03!
1&!
01!
1*!
0,!
0%!
0.!
0'!
1V
1A!
0:!
05!
1;!
19!
12!
13!
1'!
1.!
0H!
0B!
0=!
0C!
0A!
1:!
15!
0;!
06!
1I!
0E!
1K!
1H!
1B!
1=!
1C!
0>!
16!
0I!
1E!
0K!
1M!
0F!
1>!
0M!
1F!
#350000
1'
b10101110 "
b10101111 "
0%
1Y
1M
1+!
0J
0K
1Z
1$!
0T
1-!
0[
1%!
#355000
1%
1J
1K
0}
0/!
1~
1>
0@
0*!
1"!
0S
04
16
0-!
0)!
0#!
0U
0$!
1T
0.!
1*!
0&!
1,!
0V
1.!
0'!
#360000
b10111111 "
b10111101 "
b10110101 "
b10110100 "
0%
0M
0!!
00!
18!
0J
0K
0T
0%!
04!
1<!
#365000
1%
1J
1K
1y!
1z!
1{!
1|!
1~!
1%"
1("
0w
1u
0s
1q
1m
0c
1]
0v
0t
0r
0p
0l
0b
0\
1x
1v
1t
1r
1n
1d
1^
#370000
b10110000 "
b10111000 "
b10111001 "
0%
1M
0+!
10!
0J
0K
1T
03!
1-!
14!
04!
#375000
1%
1J
1K
1x!
0|!
1}!
0~!
1$"
0%"
1'"
0("
1y
0q
0o
0m
1e
1c
0_
0]
0x
1p
0n
1l
0d
1b
0^
1\
1q
1o
0e
1_
1z
0r
0p
1n
1f
1d
1`
1^
0q
1r
1p
0f
0`
0r
#380000
b10111011 "
b10111111 "
b10111110 "
0%
0M
1!!
1+!
0J
0K
0T
1%!
13!
0-!
14!
#385000
1%
1J
1K
1w!
0x!
0{!
1|!
1~!
1%"
1("
0{
0y
1s
1q
1m
0c
1]
0z
1x
1r
0p
0l
0b
0\
1{
0s
0o
1e
0_
1|
1z
0t
0r
0n
0d
0^
0|
1t
1p
1f
1`
#390000
b11111110 "
b11011110 "
b11001110 "
b11000110 "
b11000010 "
b11000011 "
0%
1M
0+!
00!
08!
0@!
1J!
0J
0K
1T
03!
1-!
04!
0<!
0D!
1R!
0L!
1;!
14!
0Y!
0S!
0C!
1<!
1Z!
1K!
1D!
0R!
1L!
1Y!
1S!
0Z!
#395000
1%
1J
1K
1x!
0}!
0~!
1#"
0$"
0%"
1&"
0'"
0("
1y
1o
0m
0g
0e
1c
1a
1_
0]
0x
1n
1l
0f
1d
1b
0`
1^
1\
0{
1g
0c
0a
0z
0p
0n
1h
1f
0d
0b
1`
0^
1c
1|
0h
1d
1b
0d
#400000
0'
b11000001 "
b11001001 "
b11001000 "
0%
0Y
0M
0!!
10!
0J
0K
0Z
0T
0%!
0;!
04!
1[
1C!
0<!
0K!
0D!
1R!
0L!
0Y!
0S!
1Z!
#405000
1%
1J
1K
1v!
0w!
0x!
0|!
1~!
1%"
1("
1{
0y
0q
1m
0c
1]
0|
1z
1x
1p
0l
0b
0\
1s
1|
0z
1r
1n
1d
1^
0t
#410000
b11001100 "
b11001101 "
0%
1M
1+!
0J
0K
1T
13!
0-!
14!
#415000
1%
1J
1K
1}
0v!
0y!
0z!
0~!
0#"
0%"
0&"
0("
0u
0m
1c
0]
0|
0v
1t
1l
0f
1b
0`
1\
1w
1v
0n
0d
0^
0x
#420000
b11011101 "
b11011111 "
b11010111 "
b11010011 "
b11010010 "
0%
0M
1!!
0+!
00!
18!
0J
0K
0T
1%!
03!
1-!
04!
1<!
1;!
14!
0<!
#425000
1%
1J
1K
1/!
0(!
0~
0>
0?
1@
11!
0*!
1)!
1#!
0"!
1S
14
05
06
09!
02!
0-!
01!
1*!
1&!
0,!
0%!
0#!
1U
1T
0.!
1A!
0:!
05!
04!
19!
12!
13!
0&!
1,!
1%!
1.!
1'!
1V
0H!
0B!
0=!
0C!
1<!
15!
0A!
1:!
0;!
03!
1-!
06!
0'!
1I!
0E!
1K!
1=!
1H!
1B!
1C!
1;!
14!
0>!
16!
0I!
1E!
0K!
0<!
1M!
0F!
1>!
0M!
1F!
#430000
b11010110 "
b11010111 "
0%
1M
1+!
0J
0K
1$!
0T
13!
0-!
0,!
0%!
0;!
04!
1-!
1<!
#435000
1%
1J
1K
1~
1>
1"!
0S
16
1#!
0U
0$!
1T
1&!
0V
1'!
#440000
b11010101 "
b11011101 "
b11011100 "
0%
0M
0!!
10!
0J
0K
0T
1,!
1%!
14!
0-!
#445000
1%
1J
1K
1(!
0~
0>
1?
0)!
0#!
0"!
1S
15
06
11!
0*!
0&!
0%!
1)!
1#!
1U
1T
09!
02!
03!
1-!
1&!
01!
1*!
1%!
0.!
0'!
1V
1A!
0:!
05!
1;!
19!
12!
13!
0-!
1.!
1'!
0H!
0B!
0=!
0C!
0A!
1:!
15!
0;!
06!
1I!
0E!
1K!
1H!
1B!
1=!
1C!
0>!
16!
0I!
1E!
0K!
1M!
0F!
1>!
0M!
1F!
