Galetron/pc_filter/simulation/qsim/pc_filter.msim.vcd
$comment
	File created using the following command:
		vcd file pc_filter.msim.vcd -direction
$end
$date
	Sun Feb  4 14:55:27 2018
$end
$version
	ModelSim Version 10.4b
$end
$timescale
	1ps
$end

$scope module pc_filter_vlg_vec_tst $end
$var reg 6 ! operation [5:0] $end
$var reg 12 " program_counter [11:0] $end
$var wire 1 # registers_file_program_counter [11] $end
$var wire 1 $ registers_file_program_counter [10] $end
$var wire 1 % registers_file_program_counter [9] $end
$var wire 1 & registers_file_program_counter [8] $end
$var wire 1 ' registers_file_program_counter [7] $end
$var wire 1 ( registers_file_program_counter [6] $end
$var wire 1 ) registers_file_program_counter [5] $end
$var wire 1 * registers_file_program_counter [4] $end
$var wire 1 + registers_file_program_counter [3] $end
$var wire 1 , registers_file_program_counter [2] $end
$var wire 1 - registers_file_program_counter [1] $end
$var wire 1 . registers_file_program_counter [0] $end

$scope module i1 $end
$var wire 1 / gnd $end
$var wire 1 0 vcc $end
$var wire 1 1 unknown $end
$var tri1 1 2 devclrn $end
$var tri1 1 3 devpor $end
$var tri1 1 4 devoe $end
$var wire 1 5 ~QUARTUS_CREATED_GND~I_combout $end
$var wire 1 6 operation[0]~input_o $end
$var wire 1 7 operation[4]~input_o $end
$var wire 1 8 operation[2]~input_o $end
$var wire 1 9 operation[3]~input_o $end
$var wire 1 : operation[5]~input_o $end
$var wire 1 ; operation[1]~input_o $end
$var wire 1 < always0~0_combout $end
$var wire 1 = program_counter[0]~input_o $end
$var wire 1 > Add0~1_sumout $end
$var wire 1 ? registers_file_program_counter~0_combout $end
$var wire 1 @ program_counter[1]~input_o $end
$var wire 1 A Add0~2 $end
$var wire 1 B Add0~5_sumout $end
$var wire 1 C registers_file_program_counter~1_combout $end
$var wire 1 D program_counter[2]~input_o $end
$var wire 1 E Add0~6 $end
$var wire 1 F Add0~9_sumout $end
$var wire 1 G registers_file_program_counter~2_combout $end
$var wire 1 H program_counter[3]~input_o $end
$var wire 1 I Add0~10 $end
$var wire 1 J Add0~13_sumout $end
$var wire 1 K registers_file_program_counter~3_combout $end
$var wire 1 L program_counter[4]~input_o $end
$var wire 1 M Add0~14 $end
$var wire 1 N Add0~17_sumout $end
$var wire 1 O registers_file_program_counter~4_combout $end
$var wire 1 P program_counter[5]~input_o $end
$var wire 1 Q Add0~18 $end
$var wire 1 R Add0~21_sumout $end
$var wire 1 S registers_file_program_counter~5_combout $end
$var wire 1 T program_counter[6]~input_o $end
$var wire 1 U Add0~22 $end
$var wire 1 V Add0~25_sumout $end
$var wire 1 W registers_file_program_counter~6_combout $end
$var wire 1 X program_counter[7]~input_o $end
$var wire 1 Y Add0~26 $end
$var wire 1 Z Add0~29_sumout $end
$var wire 1 [ registers_file_program_counter~7_combout $end
$var wire 1 \ program_counter[8]~input_o $end
$var wire 1 ] Add0~30 $end
$var wire 1 ^ Add0~33_sumout $end
$var wire 1 _ registers_file_program_counter~8_combout $end
$var wire 1 ` program_counter[9]~input_o $end
$var wire 1 a Add0~34 $end
$var wire 1 b Add0~37_sumout $end
$var wire 1 c registers_file_program_counter~9_combout $end
$var wire 1 d program_counter[10]~input_o $end
$var wire 1 e Add0~38 $end
$var wire 1 f Add0~41_sumout $end
$var wire 1 g registers_file_program_counter~10_combout $end
$var wire 1 h program_counter[11]~input_o $end
$var wire 1 i Add0~42 $end
$var wire 1 j Add0~45_sumout $end
$var wire 1 k registers_file_program_counter~11_combout $end
$upscope $end
$upscope $end
$enddefinitions $end
#0
$dumpvars
b0 !
b0 "
1.
0-
0,
0+
0*
0)
0(
0'
0&
0%
0$
0#
0/
10
x1
12
13
14
05
06
07
08
09
0:
0;
1<
0=
1>
1?
0@
0A
0B
0C
0D
0E
0F
0G
0H
0I
0J
0K
0L
0M
0N
0O
0P
0Q
0R
0S
0T
0U
0V
0W
0X
0Y
0Z
0[
0\
0]
0^
0_
0`
0a
0b
0c
0d
0e
0f
0g
0h
0i
0j
0k
$end
#25000
b1 !
16
#50000
b11 !
b1 "
b10 !
1=
06
1;
1A
0>
1B
0?
0.
1C
1-
#75000
b11 !
16
#100000
b111 !
b11 "
b101 !
b10 "
b100 !
0=
1@
06
0;
18
1E
0B
0A
1>
1F
0E
1B
1?
0C
0-
1.
0F
1C
1G
1,
1-
0G
0,
#125000
b101 !
16
#150000
b111 !
b11 "
b110 !
1=
06
1;
1A
0>
1E
0B
0?
0.
1F
0C
0-
1G
1,
#175000
b111 !
16
#200000
b1111 !
b111 "
b1011 !
b101 "
b1001 !
b100 "
b1000 !
0=
0@
1D
06
0;
08
19
1I
0F
0E
1B
0A
1>
1J
0I
1F
0B
1?
1C
0G
0,
1-
1.
0J
0C
1G
1K
1+
1,
0-
0K
0+
#225000
b1001 !
16
#250000
b1011 !
b101 "
b1010 !
1=
06
1;
1A
0>
1B
0?
0.
1C
1-
#275000
b1011 !
16
#300000
b1111 !
b111 "
b1101 !
b110 "
b1100 !
0=
1@
06
0;
18
1E
0B
0A
1>
1I
0F
0E
1B
1?
0C
0-
1.
1J
0I
1F
1C
0G
0,
1-
0J
1G
1K
1+
1,
0K
0+
#325000
b1101 !
16
#350000
b1111 !
b111 "
b1110 !
1=
06
1;
1A
0>
1E
0B
0?
0.
1I
0F
0C
0-
1J
0G
0,
1K
1+
#375000
b1111 !
16
#400000
b11111 !
b1111 "
b10111 !
b1011 "
b10011 !
b1001 "
b10001 !
b1000 "
b10000 !
0=
0@
0D
1H
06
0;
08
09
17
1M
0J
0I
1F
0E
1B
0A
1>
1N
0M
1J
0F
0B
1?
1C
1G
0K
0+
1,
1-
1.
0N
0C
0G
1K
1O
1*
1+
0,
0-
0O
0*
#425000
b10001 !
16
#450000
b10011 !
b1001 "
b10010 !
1=
06
1;
0<
1A
0>
1B
#475000
b10011 !
16
#500000
b10111 !
b1011 "
b10101 !
b1010 "
b10100 !
0=
1@
06
0;
18
1E
0B
0A
1>
1C
0?
0.
1-
1F
0E
1B
0F
#525000
b10101 !
16
#550000
b10111 !
b1011 "
b10110 !
1=
06
1;
1A
0>
1?
1.
1E
0B
1F
#575000
b10111 !
16
1<
1G
0C
0?
0.
0-
1,
#600000
b11111 !
b1111 "
b11011 !
b1101 "
b11001 !
b1100 "
b11000 !
0=
0@
1D
06
0;
08
19
0<
1I
0F
0E
1B
0A
1>
1M
0J
0I
1F
0B
1N
0M
1J
0N
#625000
b11001 !
16
#650000
b11011 !
b1101 "
b11010 !
1=
06
1;
1A
0>
1?
1.
1B
#675000
b11011 !
16
#700000
b11111 !
b1111 "
b11101 !
b1110 "
b11100 !
0=
1@
06
0;
18
1E
0B
0A
1>
1C
0?
0.
1-
1I
0F
0E
1B
1M
0J
0I
1F
1N
0M
1J
0N
#725000
b11101 !
16
#750000
b11111 !
b1111 "
b11110 !
1=
06
1;
1A
0>
1?
1.
1E
0B
1I
0F
1M
0J
1N
#775000
b11111 !
16
#800000
b111111 !
b11111 "
b101111 !
b10111 "
b100111 !
b10011 "
b100011 !
b10001 "
b100001 !
b10000 "
b100000 !
0=
0@
0D
0H
1L
06
0;
08
09
07
1:
1Q
0N
0M
1J
0I
1F
0E
1B
0A
1>
1O
0K
0G
0C
0?
0.
0-
0,
0+
1*
1R
0Q
1N
0J
0F
0B
0R
#825000
b100001 !
16
#850000
b100011 !
b10001 "
b100010 !
1=
06
1;
1A
0>
1?
1.
1B
#875000
b100011 !
16
#900000
b100111 !
b10011 "
b100101 !
b10010 "
b100100 !
0=
1@
06
0;
18
1E
0B
0A
1>
1C
0?
0.
1-
1F
0E
1B
0F
#925000
b100101 !
16
#950000
b100111 !
b10011 "
b100110 !
1=
06
1;
1A
0>
1?
1.
1E
0B
1F
#975000
b100111 !
16
