Galetron/reset_controller/simulation/qsim/reset_controller.msim.vcd
$comment
	File created using the following command:
		vcd file reset_controller.msim.vcd -direction
$end
$date
	Wed Feb 14 15:36:39 2018
$end
$version
	ModelSim Version 10.4b
$end
$timescale
	1ps
$end

$scope module reset_controller_vlg_vec_tst $end
$var reg 6 ! operation [5:0] $end
$var reg 12 " program_counter [11:0] $end
$var reg 1 # resume_os $end
$var reg 1 $ system_reset $end
$var wire 1 % resetCPU $end

$scope module i1 $end
$var wire 1 & gnd $end
$var wire 1 ' vcc $end
$var wire 1 ( unknown $end
$var tri1 1 ) devclrn $end
$var tri1 1 * devpor $end
$var tri1 1 + devoe $end
$var wire 1 , program_counter[7]~input_o $end
$var wire 1 - program_counter[6]~input_o $end
$var wire 1 . program_counter[5]~input_o $end
$var wire 1 / program_counter[4]~input_o $end
$var wire 1 0 program_counter[3]~input_o $end
$var wire 1 1 program_counter[2]~input_o $end
$var wire 1 2 program_counter[1]~input_o $end
$var wire 1 3 program_counter[0]~input_o $end
$var wire 1 4 ~QUARTUS_CREATED_GND~I_combout $end
$var wire 1 5 operation[4]~input_o $end
$var wire 1 6 operation[0]~input_o $end
$var wire 1 7 operation[1]~input_o $end
$var wire 1 8 operation[3]~input_o $end
$var wire 1 9 operation[2]~input_o $end
$var wire 1 : WideOr0~0_combout $end
$var wire 1 ; resetCPU~0_combout $end
$var wire 1 < operation[5]~input_o $end
$var wire 1 = program_counter[8]~input_o $end
$var wire 1 > program_counter[11]~input_o $end
$var wire 1 ? system_reset~input_o $end
$var wire 1 @ program_counter[9]~input_o $end
$var wire 1 A program_counter[10]~input_o $end
$var wire 1 B resume_os~input_o $end
$var wire 1 C resetCPU~1_combout $end
$var wire 1 D resetCPU~2_combout $end
$upscope $end
$upscope $end
$enddefinitions $end
#0
$dumpvars
b0 !
b0 "
0#
0$
0%
0&
1'
x(
1)
1*
1+
0,
0-
0.
0/
00
01
02
03
04
05
06
07
08
09
0:
0;
0<
0=
0>
0?
0@
0A
0B
1C
0D
$end
#10000
b100 "
11
#20000
b1100 "
b1000 "
01
10
#30000
b1100 "
11
#40000
b11100 "
b10100 "
b10000 "
01
00
1/
#50000
b10100 "
11
#60000
1$
b11100 "
b11000 "
1?
01
10
0C
1D
1%
#70000
b1000 !
b1010 !
b11100 "
11
17
18
#80000
b1011 !
b111100 "
b101100 "
b100100 "
b100000 "
01
00
0/
1.
16
#90000
b1111 !
b1101 !
b1100 !
b100100 "
11
06
07
19
#100000
b101100 "
b1101 !
b101000 "
16
01
10
#110000
b1111 !
b1110 !
b101100 "
11
06
17
#120000
b111100 "
b110100 "
b1111 !
b110000 "
16
01
00
1/
1:
#130000
b11111 !
b10111 !
b10011 !
b10001 !
b10000 !
b110100 "
11
06
07
09
08
15
0:
0D
0%
1D
1%
#140000
b111100 "
b10001 !
b111000 "
16
01
10
#150000
b10011 !
b10010 !
b111100 "
11
06
17
#160000
b1111100 "
b1011100 "
b1001100 "
b1000100 "
b10011 !
b1000000 "
16
01
00
0/
0.
1-
1;
1:
0D
0%
#170000
b10111 !
b10101 !
b10100 !
b1000100 "
11
06
07
19
0;
#180000
b1001100 "
b10101 !
b1001000 "
16
01
10
#190000
b10111 !
b10110 !
b1001100 "
11
06
17
0:
1D
1%
#200000
b1011100 "
b1010100 "
b10111 !
b1010000 "
16
01
00
1/
1;
#210000
b11111 !
b11011 !
b11001 !
b11000 !
b1010100 "
11
06
07
09
18
0;
#220000
b1011100 "
b11001 !
b1011000 "
16
01
10
#230000
b11011 !
b11010 !
b1011100 "
11
06
17
#240000
b1111100 "
b1101100 "
b1100100 "
b11011 !
b1100000 "
16
01
00
0/
1.
#250000
b11111 !
b11101 !
b11100 !
b1100100 "
11
06
07
19
#260000
b1101100 "
b11101 !
b1101000 "
16
01
10
#270000
b11111 !
b11110 !
b1101100 "
11
06
17
#280000
b1111100 "
b1110100 "
b11111 !
b1110000 "
16
01
00
1/
1:
0D
0%
#290000
b111111 !
b101111 !
b100111 !
b100011 !
b100001 !
b100000 !
b1110100 "
11
06
07
09
08
05
1<
0:
1D
1%
#300000
b1111100 "
b100001 !
b1111000 "
16
01
10
#310000
b100011 !
b100010 !
b1111100 "
11
06
17
#320000
b11111100 "
b10111100 "
b10011100 "
b10001100 "
b10000100 "
b100011 !
b10000000 "
16
01
00
0/
0.
0-
1,
1;
1:
0D
0%
#330000
b100111 !
b100101 !
b100100 !
b10000100 "
11
06
07
19
0;
1D
1%
#340000
b10001100 "
b100101 !
b10001000 "
16
01
10
#350000
b100111 !
b100110 !
b10001100 "
11
06
17
0:
#360000
b10011100 "
b10010100 "
b100111 !
b10010000 "
16
01
00
1/
1;
#370000
b111 !
b11 !
b1 !
b0 !
b10010100 "
11
06
07
09
0<
0;
#380000
b10011100 "
b10011000 "
01
10
#390000
0$
b10011100 "
0?
11
1C
0D
0%
#400000
b10111100 "
b10101100 "
b10100100 "
b10100000 "
01
00
0/
1.
#410000
b10100100 "
11
#420000
b10101100 "
b10101000 "
01
10
#430000
b10101100 "
11
#440000
b10111100 "
b10110100 "
b10110000 "
01
00
1/
#450000
b10110100 "
11
#460000
b10111100 "
b10111000 "
01
10
#470000
b10111100 "
11
#480000
b1000 !
b11111100 "
b1010 !
b11011100 "
b11001100 "
b11000100 "
b11000000 "
01
00
0/
0.
1-
17
18
#490000
b1011 !
b11000100 "
11
16
#500000
b1111 !
b1101 !
b11001100 "
b1100 !
b11001000 "
01
10
06
07
19
#510000
1#
b1101 !
b11001100 "
1B
11
16
0C
1D
1%
#520000
b11011100 "
b1111 !
b11010100 "
b1110 !
b11010000 "
06
17
01
00
1/
#530000
b1111 !
b11010100 "
11
16
1:
#540000
b11111 !
b10111 !
b10011 !
b10001 !
b11011100 "
b10000 !
b11011000 "
01
10
06
07
09
08
15
0:
0D
0%
1D
1%
#550000
b10001 !
b11011100 "
11
16
#560000
b11111100 "
b11101100 "
b10011 !
b11100100 "
b10010 !
b11100000 "
06
17
01
00
0/
1.
#570000
0#
b10011 !
b11100100 "
0B
11
16
1;
1:
1C
0D
0%
#580000
b10111 !
b10101 !
b11101100 "
b10100 !
b11101000 "
01
10
06
07
19
0;
#590000
b10101 !
b11101100 "
11
16
#600000
b11111100 "
b10111 !
b11110100 "
b10110 !
b11110000 "
06
17
01
00
1/
0:
#610000
b10111 !
b11110100 "
11
16
1;
#620000
b11111 !
b11011 !
b11001 !
b11111100 "
b11000 !
b11111000 "
01
10
06
07
09
18
0;
#630000
b11001 !
b11111100 "
11
16
#640000
b111111100 "
b101111100 "
b100111100 "
b100011100 "
b100001100 "
b11011 !
b100000100 "
b11010 !
b100000000 "
06
17
01
00
0/
0.
0-
0,
1=
#650000
b11011 !
b100000100 "
11
16
#660000
b11111 !
b11101 !
b100001100 "
b11100 !
b100001000 "
01
10
06
07
19
#670000
b11101 !
b100001100 "
11
16
#680000
b100011100 "
b11111 !
b100010100 "
b11110 !
b100010000 "
06
17
01
00
1/
#690000
1#
b11111 !
b100010100 "
1B
11
16
1:
#700000
b111111 !
b101111 !
b100111 !
b100011 !
b100001 !
b100011100 "
b100000 !
b100011000 "
01
10
06
07
09
08
05
1<
0:
#710000
b100001 !
b100011100 "
11
16
#720000
b100111100 "
b100101100 "
b100011 !
b100100100 "
b100010 !
b100100000 "
06
17
01
00
0/
1.
#730000
b100011 !
b100100100 "
11
16
1;
1:
#740000
b100111 !
b100101 !
b100101100 "
b100100 !
b100101000 "
01
10
06
07
19
0;
1D
1%
0D
0%
#750000
b100101 !
b100101100 "
11
16
#760000
0#
b100111100 "
b100111 !
b100110100 "
b100110 !
b100110000 "
0B
06
17
01
00
1/
0:
#770000
b100111 !
b100110100 "
11
16
1;
1D
1%
#780000
b101111 !
b101011 !
b101001 !
b100111100 "
b101000 !
b100111000 "
01
10
06
07
09
18
0;
0D
0%
#790000
b101001 !
b100111100 "
11
16
#800000
1$
b101111100 "
b101011100 "
b101001100 "
b101011 !
b101000100 "
b101010 !
b101000000 "
1?
06
17
01
00
0/
0.
1-
0C
1D
1%
#810000
b101011 !
b101000100 "
11
16
#820000
b101111 !
b101101 !
b101001100 "
b101100 !
b101001000 "
01
10
06
07
19
#830000
b101101 !
b101001100 "
11
16
#840000
b101011100 "
b101111 !
b101010100 "
b101110 !
b101010000 "
06
17
01
00
1/
#850000
b101111 !
b101010100 "
11
16
1:
#860000
b111111 !
b110111 !
b110011 !
b110001 !
b101011100 "
b110000 !
b101011000 "
01
10
06
07
09
08
15
0:
#870000
b110001 !
b101011100 "
11
16
#880000
b101111100 "
b101101100 "
b110011 !
b101100100 "
b110010 !
b101100000 "
06
17
01
00
0/
1.
#890000
b110011 !
b101100100 "
11
16
1;
1:
#900000
b110111 !
b110101 !
b101101100 "
b110100 !
b101101000 "
01
10
06
07
19
0;
#910000
b110101 !
b101101100 "
11
16
#920000
b101111100 "
b110111 !
b101110100 "
b110110 !
b101110000 "
06
17
01
00
1/
0:
#930000
b10110 !
b110 !
b10 !
b0 !
b101110100 "
11
07
09
05
0<
#940000
b101111100 "
b101111000 "
01
10
#950000
b101111100 "
11
#960000
b111111100 "
0$
b110111100 "
b110011100 "
b110001100 "
b110000100 "
b110000000 "
01
00
0/
0.
0-
1,
0?
1C
0D
0%
#970000
b110000100 "
11
#980000
b110001100 "
b110001000 "
01
10
#990000
b110001100 "
11
