Galetron/Output/simulation/qsim/Output.msim.vcd
$comment
	File created using the following command:
		vcd file Output.msim.vcd -direction
$end
$date
	Wed Jun 22 21:17:37 2016
$end
$version
	ModelSim Version 10.4b
$end
$timescale
	1ps
$end

$scope module Output_vlg_vec_tst $end
$var reg 32 ! binary [31:0] $end
$var reg 1 " clock $end
$var wire 1 # billions [6] $end
$var wire 1 $ billions [5] $end
$var wire 1 % billions [4] $end
$var wire 1 & billions [3] $end
$var wire 1 ' billions [2] $end
$var wire 1 ( billions [1] $end
$var wire 1 ) billions [0] $end
$var wire 1 * gazillions [6] $end
$var wire 1 + gazillions [5] $end
$var wire 1 , gazillions [4] $end
$var wire 1 - gazillions [3] $end
$var wire 1 . gazillions [2] $end
$var wire 1 / gazillions [1] $end
$var wire 1 0 gazillions [0] $end
$var wire 1 1 hundreds [6] $end
$var wire 1 2 hundreds [5] $end
$var wire 1 3 hundreds [4] $end
$var wire 1 4 hundreds [3] $end
$var wire 1 5 hundreds [2] $end
$var wire 1 6 hundreds [1] $end
$var wire 1 7 hundreds [0] $end
$var wire 1 8 millions [6] $end
$var wire 1 9 millions [5] $end
$var wire 1 : millions [4] $end
$var wire 1 ; millions [3] $end
$var wire 1 < millions [2] $end
$var wire 1 = millions [1] $end
$var wire 1 > millions [0] $end
$var wire 1 ? ones [6] $end
$var wire 1 @ ones [5] $end
$var wire 1 A ones [4] $end
$var wire 1 B ones [3] $end
$var wire 1 C ones [2] $end
$var wire 1 D ones [1] $end
$var wire 1 E ones [0] $end
$var wire 1 F tens [6] $end
$var wire 1 G tens [5] $end
$var wire 1 H tens [4] $end
$var wire 1 I tens [3] $end
$var wire 1 J tens [2] $end
$var wire 1 K tens [1] $end
$var wire 1 L tens [0] $end
$var wire 1 M thousands [6] $end
$var wire 1 N thousands [5] $end
$var wire 1 O thousands [4] $end
$var wire 1 P thousands [3] $end
$var wire 1 Q thousands [2] $end
$var wire 1 R thousands [1] $end
$var wire 1 S thousands [0] $end
$var wire 1 T trillions [6] $end
$var wire 1 U trillions [5] $end
$var wire 1 V trillions [4] $end
$var wire 1 W trillions [3] $end
$var wire 1 X trillions [2] $end
$var wire 1 Y trillions [1] $end
$var wire 1 Z trillions [0] $end

$scope module i1 $end
$var wire 1 [ gnd $end
$var wire 1 \ vcc $end
$var wire 1 ] unknown $end
$var tri1 1 ^ devclrn $end
$var tri1 1 _ devpor $end
$var tri1 1 ` devoe $end
$var wire 1 a ~QUARTUS_CREATED_GND~I_combout $end
$var wire 1 b clock~input_o $end
$var wire 1 c clock~inputCLKENA0_outclk $end
$var wire 1 d binary[1]~input_o $end
$var wire 1 e binary[4]~input_o $end
$var wire 1 f binary[7]~input_o $end
$var wire 1 g binary[12]~input_o $end
$var wire 1 h binary[18]~input_o $end
$var wire 1 i binary[25]~input_o $end
$var wire 1 j binary[30]~input_o $end
$var wire 1 k binary[28]~input_o $end
$var wire 1 l binary[26]~input_o $end
$var wire 1 m binary[31]~input_o $end
$var wire 1 n binary[29]~input_o $end
$var wire 1 o binary[27]~input_o $end
$var wire 1 p converter|ones~2_combout $end
$var wire 1 q converter|ones~0_combout $end
$var wire 1 r binary[23]~input_o $end
$var wire 1 s converter|ones~1_combout $end
$var wire 1 t binary[24]~input_o $end
$var wire 1 u converter|ones~4_combout $end
$var wire 1 v binary[21]~input_o $end
$var wire 1 w converter|ones~5_combout $end
$var wire 1 x converter|ones~3_combout $end
$var wire 1 y binary[20]~input_o $end
$var wire 1 z binary[22]~input_o $end
$var wire 1 { converter|ones~7_combout $end
$var wire 1 | converter|ones~6_combout $end
$var wire 1 } converter|ones~8_combout $end
$var wire 1 ~ binary[19]~input_o $end
$var wire 1 !! binary[17]~input_o $end
$var wire 1 "! converter|ones~9_combout $end
$var wire 1 #! converter|ones~11_combout $end
$var wire 1 $! converter|ones~10_combout $end
$var wire 1 %! binary[16]~input_o $end
$var wire 1 &! binary[14]~input_o $end
$var wire 1 '! binary[15]~input_o $end
$var wire 1 (! converter|ones~13_combout $end
$var wire 1 )! converter|ones~14_combout $end
$var wire 1 *! converter|ones~12_combout $end
$var wire 1 +! binary[13]~input_o $end
$var wire 1 ,! binary[11]~input_o $end
$var wire 1 -! converter|ones~15_combout $end
$var wire 1 .! converter|ones~17_combout $end
$var wire 1 /! binary[10]~input_o $end
$var wire 1 0! converter|ones~16_combout $end
$var wire 1 1! binary[9]~input_o $end
$var wire 1 2! converter|LessThan83~0_combout $end
$var wire 1 3! binary[8]~input_o $end
$var wire 1 4! converter|ones~18_combout $end
$var wire 1 5! converter|ones~19_combout $end
$var wire 1 6! converter|LessThan91~0_combout $end
$var wire 1 7! converter|ones~21_combout $end
$var wire 1 8! converter|ones~23_combout $end
$var wire 1 9! converter|LessThan99~0_combout $end
$var wire 1 :! converter|ones~22_combout $end
$var wire 1 ;! binary[6]~input_o $end
$var wire 1 <! converter|ones~20_combout $end
$var wire 1 =! converter|LessThan107~0_combout $end
$var wire 1 >! converter|ones~24_combout $end
$var wire 1 ?! binary[5]~input_o $end
$var wire 1 @! converter|ones~25_combout $end
$var wire 1 A! converter|ones~27_combout $end
$var wire 1 B! converter|LessThan115~0_combout $end
$var wire 1 C! converter|ones~26_combout $end
$var wire 1 D! converter|LessThan123~0_combout $end
$var wire 1 E! converter|ones~30_combout $end
$var wire 1 F! binary[3]~input_o $end
$var wire 1 G! converter|ones~29_combout $end
$var wire 1 H! converter|LessThan131~0_combout $end
$var wire 1 I! binary[2]~input_o $end
$var wire 1 J! converter|LessThan139~0_combout $end
$var wire 1 K! converter|ones~28_combout $end
$var wire 1 L! converter|ones[1]~31_combout $end
$var wire 1 M! converter|ones[2]~32_combout $end
$var wire 1 N! converter|ones[3]~33_combout $end
$var wire 1 O! binary[0]~input_o $end
$var wire 1 P! displayA|WideOr0~0_combout $end
$var wire 1 Q! displayA|WideOr1~0_combout $end
$var wire 1 R! displayA|WideOr2~0_combout $end
$var wire 1 S! displayA|WideOr3~0_combout $end
$var wire 1 T! displayA|WideOr4~0_combout $end
$var wire 1 U! displayA|WideOr5~0_combout $end
$var wire 1 V! displayA|WideOr6~0_combout $end
$var wire 1 W! converter|ones~41_combout $end
$var wire 1 X! converter|ones~44_combout $end
$var wire 1 Y! converter|ones~46_combout $end
$var wire 1 Z! converter|ones~51_combout $end
$var wire 1 [! converter|ones~53_combout $end
$var wire 1 \! converter|ones~54_combout $end
$var wire 1 ]! converter|ones~52_combout $end
$var wire 1 ^! converter|ones~55_combout $end
$var wire 1 _! converter|tens~1_combout $end
$var wire 1 `! converter|ones~57_combout $end
$var wire 1 a! converter|tens~2_combout $end
$var wire 1 b! converter|tens~3_combout $end
$var wire 1 c! converter|ones~56_combout $end
$var wire 1 d! converter|tens~6_combout $end
$var wire 1 e! converter|tens~5_combout $end
$var wire 1 f! converter|tens~4_combout $end
$var wire 1 g! converter|tens~7_combout $end
$var wire 1 h! converter|ones~49_combout $end
$var wire 1 i! converter|tens~8_combout $end
$var wire 1 j! converter|ones~50_combout $end
$var wire 1 k! converter|tens~9_combout $end
$var wire 1 l! converter|tens~11_combout $end
$var wire 1 m! converter|tens~10_combout $end
$var wire 1 n! converter|tens~12_combout $end
$var wire 1 o! converter|ones~47_combout $end
$var wire 1 p! converter|ones~48_combout $end
$var wire 1 q! converter|tens~13_combout $end
$var wire 1 r! converter|ones~45_combout $end
$var wire 1 s! converter|tens~14_combout $end
$var wire 1 t! converter|ones~43_combout $end
$var wire 1 u! converter|tens~15_combout $end
$var wire 1 v! converter|tens~17_combout $end
$var wire 1 w! converter|tens~16_combout $end
$var wire 1 x! converter|tens~18_combout $end
$var wire 1 y! converter|ones~42_combout $end
$var wire 1 z! converter|tens~22_combout $end
$var wire 1 {! converter|LessThan90~0_combout $end
$var wire 1 |! converter|tens~23_combout $end
$var wire 1 }! converter|ones~40_combout $end
$var wire 1 ~! converter|LessThan98~0_combout $end
$var wire 1 !" converter|tens~20_combout $end
$var wire 1 "" converter|tens~24_combout $end
$var wire 1 #" converter|ones~39_combout $end
$var wire 1 $" converter|ones~38_combout $end
$var wire 1 %" converter|tens~21_combout $end
$var wire 1 &" converter|tens~19_combout $end
$var wire 1 '" converter|tens~26_combout $end
$var wire 1 (" converter|ones~37_combout $end
$var wire 1 )" converter|ones~35_combout $end
$var wire 1 *" converter|LessThan122~0_combout $end
$var wire 1 +" converter|ones~36_combout $end
$var wire 1 ," converter|LessThan114~0_combout $end
$var wire 1 -" converter|tens~25_combout $end
$var wire 1 ." converter|LessThan138~0_combout $end
$var wire 1 /" converter|ones~34_combout $end
$var wire 1 0" converter|tens~27_combout $end
$var wire 1 1" converter|LessThan130~0_combout $end
$var wire 1 2" converter|tens[3]~30_combout $end
$var wire 1 3" converter|tens[2]~29_combout $end
$var wire 1 4" converter|tens[0]~0_combout $end
$var wire 1 5" converter|tens[1]~28_combout $end
$var wire 1 6" displayB|WideOr0~0_combout $end
$var wire 1 7" displayB|WideOr1~0_combout $end
$var wire 1 8" displayB|WideOr2~0_combout $end
$var wire 1 9" displayB|WideOr3~0_combout $end
$var wire 1 :" displayB|WideOr4~0_combout $end
$var wire 1 ;" displayB|WideOr5~0_combout $end
$var wire 1 <" displayB|WideOr6~0_combout $end
$var wire 1 =" converter|tens~33_combout $end
$var wire 1 >" converter|tens~41_combout $end
$var wire 1 ?" converter|tens~42_combout $end
$var wire 1 @" converter|tens~46_combout $end
$var wire 1 A" converter|tens~48_combout $end
$var wire 1 B" converter|thousands~0_combout $end
$var wire 1 C" converter|tens~52_combout $end
$var wire 1 D" converter|tens~51_combout $end
$var wire 1 E" converter|tens~53_combout $end
$var wire 1 F" converter|tens~54_combout $end
$var wire 1 G" converter|hundreds~2_combout $end
$var wire 1 H" converter|tens~49_combout $end
$var wire 1 I" converter|hundreds~3_combout $end
$var wire 1 J" converter|tens~50_combout $end
$var wire 1 K" converter|hundreds~1_combout $end
$var wire 1 L" converter|hundreds~5_combout $end
$var wire 1 M" converter|tens~47_combout $end
$var wire 1 N" converter|hundreds~6_combout $end
$var wire 1 O" converter|tens~45_combout $end
$var wire 1 P" converter|hundreds~4_combout $end
$var wire 1 Q" converter|hundreds~9_combout $end
$var wire 1 R" converter|hundreds~8_combout $end
$var wire 1 S" converter|tens~43_combout $end
$var wire 1 T" converter|hundreds~7_combout $end
$var wire 1 U" converter|tens~44_combout $end
$var wire 1 V" converter|hundreds~10_combout $end
$var wire 1 W" converter|hundreds~12_combout $end
$var wire 1 X" converter|tens~40_combout $end
$var wire 1 Y" converter|tens~39_combout $end
$var wire 1 Z" converter|hundreds~11_combout $end
$var wire 1 [" converter|hundreds~15_combout $end
$var wire 1 \" converter|hundreds~14_combout $end
$var wire 1 ]" converter|tens~37_combout $end
$var wire 1 ^" converter|hundreds~13_combout $end
$var wire 1 _" converter|tens~38_combout $end
$var wire 1 `" converter|LessThan97~0_combout $end
$var wire 1 a" converter|hundreds~17_combout $end
$var wire 1 b" converter|tens~36_combout $end
$var wire 1 c" converter|LessThan105~0_combout $end
$var wire 1 d" converter|hundreds~18_combout $end
$var wire 1 e" converter|tens~35_combout $end
$var wire 1 f" converter|hundreds~16_combout $end
$var wire 1 g" converter|hundreds~19_combout $end
$var wire 1 h" converter|hundreds~20_combout $end
$var wire 1 i" converter|hundreds~21_combout $end
$var wire 1 j" converter|tens~34_combout $end
$var wire 1 k" converter|hundreds~22_combout $end
$var wire 1 l" converter|LessThan129~0_combout $end
$var wire 1 m" converter|tens~32_combout $end
$var wire 1 n" converter|hundreds~23_combout $end
$var wire 1 o" converter|tens~31_combout $end
$var wire 1 p" converter|hundreds[3]~26_combout $end
$var wire 1 q" converter|hundreds[1]~24_combout $end
$var wire 1 r" converter|hundreds[2]~25_combout $end
$var wire 1 s" converter|hundreds[0]~0_combout $end
$var wire 1 t" displayC|WideOr0~0_combout $end
$var wire 1 u" displayC|WideOr1~0_combout $end
$var wire 1 v" displayC|WideOr2~0_combout $end
$var wire 1 w" displayC|WideOr3~0_combout $end
$var wire 1 x" displayC|WideOr4~0_combout $end
$var wire 1 y" displayC|WideOr5~0_combout $end
$var wire 1 z" displayC|WideOr6~0_combout $end
$var wire 1 {" converter|hundreds~31_combout $end
$var wire 1 |" converter|hundreds~34_combout $end
$var wire 1 }" converter|hundreds~38_combout $end
$var wire 1 ~" converter|hundreds~44_combout $end
$var wire 1 !# converter|hundreds~43_combout $end
$var wire 1 "# converter|hundreds~45_combout $end
$var wire 1 ## converter|LessThan9~0_combout $end
$var wire 1 $# converter|hundreds~47_combout $end
$var wire 1 %# converter|hundreds~46_combout $end
$var wire 1 &# converter|thousands~2_combout $end
$var wire 1 '# converter|thousands~3_combout $end
$var wire 1 (# converter|thousands~4_combout $end
$var wire 1 )# converter|thousands~5_combout $end
$var wire 1 *# converter|thousands~6_combout $end
$var wire 1 +# converter|hundreds~42_combout $end
$var wire 1 ,# converter|thousands~7_combout $end
$var wire 1 -# converter|hundreds~41_combout $end
$var wire 1 .# converter|hundreds~40_combout $end
$var wire 1 /# converter|thousands~9_combout $end
$var wire 1 0# converter|thousands~8_combout $end
$var wire 1 1# converter|hundreds~37_combout $end
$var wire 1 2# converter|thousands~10_combout $end
$var wire 1 3# converter|hundreds~39_combout $end
$var wire 1 4# converter|thousands~12_combout $end
$var wire 1 5# converter|hundreds~35_combout $end
$var wire 1 6# converter|thousands~13_combout $end
$var wire 1 7# converter|thousands~11_combout $end
$var wire 1 8# converter|hundreds~36_combout $end
$var wire 1 9# converter|thousands~15_combout $end
$var wire 1 :# converter|thousands~16_combout $end
$var wire 1 ;# converter|hundreds~32_combout $end
$var wire 1 <# converter|thousands~14_combout $end
$var wire 1 =# converter|hundreds~33_combout $end
$var wire 1 ># converter|LessThan112~0_combout $end
$var wire 1 ?# converter|LessThan104~0_combout $end
$var wire 1 @# converter|thousands~18_combout $end
$var wire 1 A# converter|thousands~19_combout $end
$var wire 1 B# converter|thousands~17_combout $end
$var wire 1 C# converter|hundreds~30_combout $end
$var wire 1 D# converter|LessThan120~0_combout $end
$var wire 1 E# converter|thousands~20_combout $end
$var wire 1 F# converter|thousands~21_combout $end
$var wire 1 G# converter|thousands~22_combout $end
$var wire 1 H# converter|hundreds~29_combout $end
$var wire 1 I# converter|LessThan128~0_combout $end
$var wire 1 J# converter|hundreds~28_combout $end
$var wire 1 K# converter|hundreds~27_combout $end
$var wire 1 L# converter|thousands[3]~25_combout $end
$var wire 1 M# converter|thousands[1]~23_combout $end
$var wire 1 N# converter|thousands[0]~1_combout $end
$var wire 1 O# converter|thousands[2]~24_combout $end
$var wire 1 P# displayD|WideOr0~0_combout $end
$var wire 1 Q# displayD|WideOr1~0_combout $end
$var wire 1 R# displayD|WideOr2~0_combout $end
$var wire 1 S# displayD|WideOr3~0_combout $end
$var wire 1 T# displayD|WideOr4~0_combout $end
$var wire 1 U# displayD|WideOr5~0_combout $end
$var wire 1 V# displayD|WideOr6~0_combout $end
$var wire 1 W# converter|millions[0]~0_combout $end
$var wire 1 X# converter|thousands~30_combout $end
$var wire 1 Y# converter|thousands~34_combout $end
$var wire 1 Z# converter|thousands~36_combout $end
$var wire 1 [# converter|thousands~39_combout $end
$var wire 1 \# converter|thousands~43_combout $end
$var wire 1 ]# converter|thousands~41_combout $end
$var wire 1 ^# converter|thousands~42_combout $end
$var wire 1 _# converter|thousands~44_combout $end
$var wire 1 `# converter|millions~2_combout $end
$var wire 1 a# converter|thousands~38_combout $end
$var wire 1 b# converter|thousands~40_combout $end
$var wire 1 c# converter|millions~3_combout $end
$var wire 1 d# converter|millions~1_combout $end
$var wire 1 e# converter|millions~6_combout $end
$var wire 1 f# converter|thousands~35_combout $end
$var wire 1 g# converter|millions~5_combout $end
$var wire 1 h# converter|thousands~37_combout $end
$var wire 1 i# converter|millions~4_combout $end
$var wire 1 j# converter|millions~9_combout $end
$var wire 1 k# converter|millions~8_combout $end
$var wire 1 l# converter|thousands~32_combout $end
$var wire 1 m# converter|millions~7_combout $end
$var wire 1 n# converter|thousands~33_combout $end
$var wire 1 o# converter|millions~12_combout $end
$var wire 1 p# converter|millions~11_combout $end
$var wire 1 q# converter|millions~10_combout $end
$var wire 1 r# converter|thousands~31_combout $end
$var wire 1 s# converter|millions~13_combout $end
$var wire 1 t# converter|millions~14_combout $end
$var wire 1 u# converter|LessThan111~0_combout $end
$var wire 1 v# converter|thousands~29_combout $end
$var wire 1 w# converter|LessThan119~0_combout $end
$var wire 1 x# converter|millions~15_combout $end
$var wire 1 y# converter|thousands~28_combout $end
$var wire 1 z# converter|LessThan127~0_combout $end
$var wire 1 {# converter|thousands~26_combout $end
$var wire 1 |# converter|thousands~27_combout $end
$var wire 1 }# converter|millions~16_combout $end
$var wire 1 ~# converter|millions~17_combout $end
$var wire 1 !$ converter|millions[1]~18_combout $end
$var wire 1 "$ converter|millions[2]~19_combout $end
$var wire 1 #$ converter|millions[3]~20_combout $end
$var wire 1 $$ displayE|WideOr0~0_combout $end
$var wire 1 %$ displayE|WideOr1~0_combout $end
$var wire 1 &$ displayE|WideOr2~0_combout $end
$var wire 1 '$ displayE|WideOr3~0_combout $end
$var wire 1 ($ displayE|WideOr4~0_combout $end
$var wire 1 )$ displayE|WideOr5~0_combout $end
$var wire 1 *$ displayE|WideOr6~0_combout $end
$var wire 1 +$ converter|millions~21_combout $end
$var wire 1 ,$ converter|millions~28_combout $end
$var wire 1 -$ converter|millions~31_combout $end
$var wire 1 .$ converter|millions~35_combout $end
$var wire 1 /$ converter|millions~32_combout $end
$var wire 1 0$ converter|LessThan30~0_combout $end
$var wire 1 1$ converter|millions~33_combout $end
$var wire 1 2$ converter|millions~34_combout $end
$var wire 1 3$ converter|billions~3_combout $end
$var wire 1 4$ converter|billions~2_combout $end
$var wire 1 5$ converter|millions~30_combout $end
$var wire 1 6$ converter|billions~1_combout $end
$var wire 1 7$ converter|millions~29_combout $end
$var wire 1 8$ converter|billions~4_combout $end
$var wire 1 9$ converter|billions~6_combout $end
$var wire 1 :$ converter|millions~26_combout $end
$var wire 1 ;$ converter|billions~5_combout $end
$var wire 1 <$ converter|millions~27_combout $end
$var wire 1 =$ converter|billions~9_combout $end
$var wire 1 >$ converter|millions~23_combout $end
$var wire 1 ?$ converter|millions~25_combout $end
$var wire 1 @$ converter|billions~8_combout $end
$var wire 1 A$ converter|millions~24_combout $end
$var wire 1 B$ converter|billions~7_combout $end
$var wire 1 C$ converter|LessThan126~0_combout $end
$var wire 1 D$ converter|millions~22_combout $end
$var wire 1 E$ converter|LessThan118~0_combout $end
$var wire 1 F$ converter|billions~10_combout $end
$var wire 1 G$ converter|billions~11_combout $end
$var wire 1 H$ converter|billions~12_combout $end
$var wire 1 I$ converter|billions[1]~13_combout $end
$var wire 1 J$ converter|billions[2]~14_combout $end
$var wire 1 K$ converter|billions[3]~15_combout $end
$var wire 1 L$ converter|billions[0]~0_combout $end
$var wire 1 M$ displayF|WideOr0~0_combout $end
$var wire 1 N$ displayF|WideOr1~0_combout $end
$var wire 1 O$ displayF|WideOr2~0_combout $end
$var wire 1 P$ displayF|WideOr3~0_combout $end
$var wire 1 Q$ displayF|WideOr4~0_combout $end
$var wire 1 R$ displayF|WideOr5~0_combout $end
$var wire 1 S$ displayF|WideOr6~0_combout $end
$var wire 1 T$ converter|billions~18_combout $end
$var wire 1 U$ converter|billions~28_combout $end
$var wire 1 V$ converter|billions~25_combout $end
$var wire 1 W$ converter|billions~24_combout $end
$var wire 1 X$ converter|billions~26_combout $end
$var wire 1 Y$ converter|billions~23_combout $end
$var wire 1 Z$ converter|billions~27_combout $end
$var wire 1 [$ converter|trillions~1_combout $end
$var wire 1 \$ converter|trillions~3_combout $end
$var wire 1 ]$ converter|trillions~2_combout $end
$var wire 1 ^$ converter|billions~20_combout $end
$var wire 1 _$ converter|billions~21_combout $end
$var wire 1 `$ converter|billions~22_combout $end
$var wire 1 a$ converter|trillions~6_combout $end
$var wire 1 b$ converter|trillions~4_combout $end
$var wire 1 c$ converter|trillions~5_combout $end
$var wire 1 d$ converter|billions~19_combout $end
$var wire 1 e$ converter|trillions~9_combout $end
$var wire 1 f$ converter|trillions~7_combout $end
$var wire 1 g$ converter|billions~17_combout $end
$var wire 1 h$ converter|trillions~8_combout $end
$var wire 1 i$ converter|billions~16_combout $end
$var wire 1 j$ converter|trillions[3]~12_combout $end
$var wire 1 k$ converter|trillions[2]~11_combout $end
$var wire 1 l$ converter|trillions[1]~10_combout $end
$var wire 1 m$ converter|trillions[0]~0_combout $end
$var wire 1 n$ displayG|WideOr0~0_combout $end
$var wire 1 o$ displayG|WideOr1~0_combout $end
$var wire 1 p$ displayG|WideOr2~0_combout $end
$var wire 1 q$ displayG|WideOr3~0_combout $end
$var wire 1 r$ displayG|WideOr4~0_combout $end
$var wire 1 s$ displayG|WideOr5~0_combout $end
$var wire 1 t$ displayG|WideOr6~0_combout $end
$var wire 1 u$ converter|trillions~13_combout $end
$var wire 1 v$ converter|trillions~16_combout $end
$var wire 1 w$ converter|trillions~17_combout $end
$var wire 1 x$ converter|gazillions~1_combout $end
$var wire 1 y$ converter|gazillions~3_combout $end
$var wire 1 z$ converter|trillions~15_combout $end
$var wire 1 {$ converter|gazillions~2_combout $end
$var wire 1 |$ converter|gazillions~6_combout $end
$var wire 1 }$ converter|gazillions~5_combout $end
$var wire 1 ~$ converter|trillions~14_combout $end
$var wire 1 !% converter|gazillions~4_combout $end
$var wire 1 "% converter|trillions~18_combout $end
$var wire 1 #% converter|gazillions[2]~8_combout $end
$var wire 1 $% converter|gazillions[1]~7_combout $end
$var wire 1 %% converter|gazillions[0]~0_combout $end
$var wire 1 &% converter|gazillions[3]~9_combout $end
$var wire 1 '% displayH|WideOr0~0_combout $end
$var wire 1 (% displayH|WideOr1~0_combout $end
$var wire 1 )% displayH|WideOr2~0_combout $end
$var wire 1 *% displayH|WideOr3~0_combout $end
$var wire 1 +% displayH|WideOr4~0_combout $end
$var wire 1 ,% displayH|WideOr5~0_combout $end
$var wire 1 -% displayH|WideOr6~0_combout $end
$var wire 1 .% displayH|result [6] $end
$var wire 1 /% displayH|result [5] $end
$var wire 1 0% displayH|result [4] $end
$var wire 1 1% displayH|result [3] $end
$var wire 1 2% displayH|result [2] $end
$var wire 1 3% displayH|result [1] $end
$var wire 1 4% displayH|result [0] $end
$var wire 1 5% displayG|result [6] $end
$var wire 1 6% displayG|result [5] $end
$var wire 1 7% displayG|result [4] $end
$var wire 1 8% displayG|result [3] $end
$var wire 1 9% displayG|result [2] $end
$var wire 1 :% displayG|result [1] $end
$var wire 1 ;% displayG|result [0] $end
$var wire 1 <% displayF|result [6] $end
$var wire 1 =% displayF|result [5] $end
$var wire 1 >% displayF|result [4] $end
$var wire 1 ?% displayF|result [3] $end
$var wire 1 @% displayF|result [2] $end
$var wire 1 A% displayF|result [1] $end
$var wire 1 B% displayF|result [0] $end
$var wire 1 C% displayE|result [6] $end
$var wire 1 D% displayE|result [5] $end
$var wire 1 E% displayE|result [4] $end
$var wire 1 F% displayE|result [3] $end
$var wire 1 G% displayE|result [2] $end
$var wire 1 H% displayE|result [1] $end
$var wire 1 I% displayE|result [0] $end
$var wire 1 J% displayD|result [6] $end
$var wire 1 K% displayD|result [5] $end
$var wire 1 L% displayD|result [4] $end
$var wire 1 M% displayD|result [3] $end
$var wire 1 N% displayD|result [2] $end
$var wire 1 O% displayD|result [1] $end
$var wire 1 P% displayD|result [0] $end
$var wire 1 Q% displayC|result [6] $end
$var wire 1 R% displayC|result [5] $end
$var wire 1 S% displayC|result [4] $end
$var wire 1 T% displayC|result [3] $end
$var wire 1 U% displayC|result [2] $end
$var wire 1 V% displayC|result [1] $end
$var wire 1 W% displayC|result [0] $end
$var wire 1 X% displayB|result [6] $end
$var wire 1 Y% displayB|result [5] $end
$var wire 1 Z% displayB|result [4] $end
$var wire 1 [% displayB|result [3] $end
$var wire 1 \% displayB|result [2] $end
$var wire 1 ]% displayB|result [1] $end
$var wire 1 ^% displayB|result [0] $end
$var wire 1 _% displayA|result [6] $end
$var wire 1 `% displayA|result [5] $end
$var wire 1 a% displayA|result [4] $end
$var wire 1 b% displayA|result [3] $end
$var wire 1 c% displayA|result [2] $end
$var wire 1 d% displayA|result [1] $end
$var wire 1 e% displayA|result [0] $end
$upscope $end
$upscope $end
$enddefinitions $end
#0
$dumpvars
b0 !
0"
0x
0y
0z
0{
0|
0}
0~
0!!
0"!
0#!
0$!
0%!
0&!
0'!
0(!
0)!
0*!
0+!
0,!
0-!
0.!
0/!
00!
01!
12!
03!
04!
05!
16!
17!
08!
19!
0:!
0;!
1<!
1=!
1>!
0?!
1@!
0A!
1B!
0C!
1D!
0E!
0F!
1G!
1H!
0I!
1J!
1K!
0L!
0M!
0N!
0O!
1P!
1Q!
1R!
1S!
1T!
1U!
0V!
0W!
0X!
0Y!
1Z!
0[!
1\!
0]!
0^!
0_!
1`!
0a!
0b!
0c!
0d!
0e!
0f!
0g!
0h!
0i!
0j!
0k!
0l!
0m!
0n!
0o!
1p!
0q!
1r!
0s!
0t!
0u!
0v!
0w!
0x!
1y!
0z!
1{!
0|!
0}!
1~!
0!"
0""
0#"
0$"
0%"
0&"
0'"
0("
0)"
1*"
0+"
1,"
0-"
1."
0/"
00"
11"
02"
03"
14"
05"
16"
17"
18"
19"
1:"
1;"
0<"
0="
1>"
0?"
0@"
0A"
0B"
0C"
0D"
1E"
0F"
0G"
0H"
0I"
1J"
0K"
0L"
1M"
0N"
0O"
0P"
0Q"
0R"
0S"
0T"
1U"
0V"
0W"
0X"
0Y"
0Z"
0["
0\"
0]"
0^"
1_"
1`"
0a"
0b"
1c"
0d"
1e"
0f"
0g"
0h"
0i"
0j"
0k"
1l"
1m"
0n"
0o"
0p"
0q"
0r"
1s"
1t"
1u"
1v"
1w"
1x"
1y"
0z"
0{"
0|"
0}"
0~"
0!#
1"#
1##
0$#
0%#
0&#
0'#
0(#
0)#
0*#
1+#
0,#
0-#
0.#
0/#
00#
01#
02#
13#
04#
05#
06#
07#
18#
09#
0:#
0;#
0<#
1=#
1>#
1?#
0@#
0A#
0B#
1C#
1D#
0E#
0F#
0G#
0H#
1I#
0J#
1K#
0L#
0M#
0N#
0O#
1P#
1Q#
1R#
1S#
1T#
1U#
0V#
0W#
0X#
1Y#
0Z#
0[#
0\#
0]#
0^#
0_#
0`#
0a#
1b#
0c#
0d#
0e#
0f#
0g#
1h#
0i#
0j#
0k#
0l#
0m#
0n#
0o#
0p#
0q#
1r#
0s#
0t#
1u#
0v#
1w#
0x#
1y#
1z#
1{#
0|#
0}#
0~#
0!$
0"$
0#$
1$$
1%$
1&$
1'$
1($
1)$
0*$
1+$
1,$
1-$
1.$
0/$
10$
01$
02$
03$
04$
05$
06$
07$
08$
09$
0:$
0;$
0<$
0=$
0>$
1?$
0@$
0A$
0B$
1C$
0D$
1E$
0F$
0G$
0H$
0I$
0J$
0K$
0L$
1M$
1N$
1O$
1P$
1Q$
1R$
0S$
0T$
0U$
1V$
0W$
0X$
0Y$
0Z$
0[$
0\$
0]$
0^$
0_$
1`$
0a$
0b$
0c$
1d$
0e$
0f$
0g$
0h$
1i$
0j$
0k$
0l$
0m$
1n$
1o$
1p$
1q$
1r$
1s$
0t$
0u$
1v$
0w$
0x$
0y$
0z$
0{$
0|$
0}$
1~$
0!%
0"%
0#%
0$%
0%%
0&%
1'%
1(%
1)%
1*%
1+%
1,%
0-%
04%
03%
02%
01%
00%
0/%
0.%
0;%
0:%
09%
08%
07%
06%
05%
0B%
0A%
0@%
0?%
0>%
0=%
0<%
0I%
0H%
0G%
0F%
0E%
0D%
0C%
0P%
0O%
0N%
0M%
0L%
0K%
0J%
0W%
0V%
0U%
0T%
0S%
0R%
0Q%
0^%
0]%
0\%
0[%
0Z%
0Y%
0X%
0e%
0d%
0c%
0b%
0a%
0`%
0_%
1)
1(
1'
1&
1%
1$
1#
10
1/
1.
1-
1,
1+
1*
17
16
15
14
13
12
11
1>
1=
1<
1;
1:
19
18
1E
1D
1C
1B
1A
1@
1?
1L
1K
1J
1I
1H
1G
1F
1S
1R
1Q
1P
1O
1N
1M
1Z
1Y
1X
1W
1V
1U
1T
0[
1\
x]
1^
1_
1`
0a
0b
0c
0d
0e
0f
0g
0h
0i
0j
0k
0l
0m
0n
0o
0p
0q
0r
0s
0t
0u
0v
0w
$end
#5000
1"
1b
1c
13%
12%
11%
10%
1/%
1.%
1:%
19%
18%
17%
16%
15%
1A%
1@%
1?%
1>%
1=%
1<%
1H%
1G%
1F%
1E%
1D%
1C%
1O%
1N%
1M%
1L%
1K%
1J%
1V%
1U%
1T%
1S%
1R%
1Q%
1]%
1\%
1[%
1Z%
1Y%
1X%
1d%
1c%
1b%
1a%
1`%
1_%
0E
0D
0C
0B
0A
0@
0L
0K
0J
0I
0H
0G
07
06
05
04
03
02
0S
0R
0Q
0P
0O
0N
0>
0=
0<
0;
0:
09
0)
0(
0'
0&
0%
0$
0Z
0Y
0X
0W
0V
0U
00
0/
0.
0-
0,
0+
#10000
0"
0b
0c
#15000
1"
1b
1c
#20000
0"
0b
0c
#25000
1"
1b
1c
#30000
0"
0b
0c
#35000
1"
1b
1c
